%!PS-Adobe-3.0 EPSF-3.0
%%Creator: (MATLAB, The Mathworks, Inc. Version 8.6.0.267246 \(R2015b\). Operating System: Linux)
%%Title: /home/joakim/programming/matlab/machine-learning/hw6/task1d.eps
%%CreationDate: 2016-03-07T20:38:06
%%Pages: (atend)
%%BoundingBox: 0 0 410 391
%%LanguageLevel: 2
%%EndComments
%%BeginProlog
%%BeginResource: procset (Apache XML Graphics Std ProcSet) 1.2 0
%%Version: 1.2 0
%%Copyright: (Copyright 2001-2003,2010 The Apache Software Foundation. License terms: http://www.apache.org/licenses/LICENSE-2.0)
/bd{bind def}bind def
/ld{load def}bd
/GR/grestore ld
/M/moveto ld
/LJ/setlinejoin ld
/C/curveto ld
/f/fill ld
/LW/setlinewidth ld
/GC/setgray ld
/t/show ld
/N/newpath ld
/CT/concat ld
/cp/closepath ld
/S/stroke ld
/L/lineto ld
/CC/setcmykcolor ld
/A/ashow ld
/GS/gsave ld
/RC/setrgbcolor ld
/RM/rmoveto ld
/ML/setmiterlimit ld
/re {4 2 roll M
1 index 0 rlineto
0 exch rlineto
neg 0 rlineto
cp } bd
/_ctm matrix def
/_tm matrix def
/BT { _ctm currentmatrix pop matrix _tm copy pop 0 0 moveto } bd
/ET { _ctm setmatrix } bd
/iTm { _ctm setmatrix _tm concat } bd
/Tm { _tm astore pop iTm 0 0 moveto } bd
/ux 0.0 def
/uy 0.0 def
/F {
  /Tp exch def
  /Tf exch def
  Tf findfont Tp scalefont setfont
  /cf Tf def  /cs Tp def
} bd
/ULS {currentpoint /uy exch def /ux exch def} bd
/ULE {
  /Tcx currentpoint pop def
  gsave
  newpath
  cf findfont cs scalefont dup
  /FontMatrix get 0 get /Ts exch def /FontInfo get dup
  /UnderlinePosition get Ts mul /To exch def
  /UnderlineThickness get Ts mul /Tt exch def
  ux uy To add moveto  Tcx uy To add lineto
  Tt setlinewidth stroke
  grestore
} bd
/OLE {
  /Tcx currentpoint pop def
  gsave
  newpath
  cf findfont cs scalefont dup
  /FontMatrix get 0 get /Ts exch def /FontInfo get dup
  /UnderlinePosition get Ts mul /To exch def
  /UnderlineThickness get Ts mul /Tt exch def
  ux uy To add cs add moveto Tcx uy To add cs add lineto
  Tt setlinewidth stroke
  grestore
} bd
/SOE {
  /Tcx currentpoint pop def
  gsave
  newpath
  cf findfont cs scalefont dup
  /FontMatrix get 0 get /Ts exch def /FontInfo get dup
  /UnderlinePosition get Ts mul /To exch def
  /UnderlineThickness get Ts mul /Tt exch def
  ux uy To add cs 10 mul 26 idiv add moveto Tcx uy To add cs 10 mul 26 idiv add lineto
  Tt setlinewidth stroke
  grestore
} bd
/QT {
/Y22 exch store
/X22 exch store
/Y21 exch store
/X21 exch store
currentpoint
/Y21 load 2 mul add 3 div exch
/X21 load 2 mul add 3 div exch
/X21 load 2 mul /X22 load add 3 div
/Y21 load 2 mul /Y22 load add 3 div
/X22 load /Y22 load curveto
} bd
/SSPD {
dup length /d exch dict def
{
/v exch def
/k exch def
currentpagedevice k known {
/cpdv currentpagedevice k get def
v cpdv ne {
/upd false def
/nullv v type /nulltype eq def
/nullcpdv cpdv type /nulltype eq def
nullv nullcpdv or
{
/upd true def
} {
/sametype v type cpdv type eq def
sametype {
v type /arraytype eq {
/vlen v length def
/cpdvlen cpdv length def
vlen cpdvlen eq {
0 1 vlen 1 sub {
/i exch def
/obj v i get def
/cpdobj cpdv i get def
obj cpdobj ne {
/upd true def
exit
} if
} for
} {
/upd true def
} ifelse
} {
v type /dicttype eq {
v {
/dv exch def
/dk exch def
/cpddv cpdv dk get def
dv cpddv ne {
/upd true def
exit
} if
} forall
} {
/upd true def
} ifelse
} ifelse
} if
} ifelse
upd true eq {
d k v put
} if
} if
} if
} forall
d length 0 gt {
d setpagedevice
} if
} bd
%%EndResource
%%BeginResource: procset (Apache XML Graphics EPS ProcSet) 1.0 0
%%Version: 1.0 0
%%Copyright: (Copyright 2002-2003 The Apache Software Foundation. License terms: http://www.apache.org/licenses/LICENSE-2.0)
/BeginEPSF { %def
/b4_Inc_state save def         % Save state for cleanup
/dict_count countdictstack def % Count objects on dict stack
/op_count count 1 sub def      % Count objects on operand stack
userdict begin                 % Push userdict on dict stack
/showpage { } def              % Redefine showpage, { } = null proc
0 setgray 0 setlinecap         % Prepare graphics state
1 setlinewidth 0 setlinejoin
10 setmiterlimit [ ] 0 setdash newpath
/languagelevel where           % If level not equal to 1 then
{pop languagelevel             % set strokeadjust and
1 ne                           % overprint to their defaults.
{false setstrokeadjust false setoverprint
} if
} if
} bd
/EndEPSF { %def
count op_count sub {pop} repeat            % Clean up stacks
countdictstack dict_count sub {end} repeat
b4_Inc_state restore
} bd
%%EndResource
%FOPBeginFontDict
%%IncludeResource: font Courier-Bold
%%IncludeResource: font Helvetica
%%IncludeResource: font Courier-BoldOblique
%%IncludeResource: font Courier-Oblique
%%IncludeResource: font Times-Roman
%%IncludeResource: font Helvetica-BoldOblique
%%IncludeResource: font Helvetica-Bold
%%IncludeResource: font Helvetica-Oblique
%%IncludeResource: font Times-BoldItalic
%%IncludeResource: font Courier
%%IncludeResource: font Times-Italic
%%IncludeResource: font Times-Bold
%%IncludeResource: font Symbol
%%IncludeResource: font ZapfDingbats
%FOPEndFontDict
%%BeginResource: encoding WinAnsiEncoding
/WinAnsiEncoding [
/.notdef /.notdef /.notdef /.notdef /.notdef
/.notdef /.notdef /.notdef /.notdef /.notdef
/.notdef /.notdef /.notdef /.notdef /.notdef
/.notdef /.notdef /.notdef /.notdef /.notdef
/.notdef /.notdef /.notdef /.notdef /.notdef
/.notdef /.notdef /.notdef /.notdef /.notdef
/.notdef /.notdef /space /exclam /quotedbl
/numbersign /dollar /percent /ampersand /quotesingle
/parenleft /parenright /asterisk /plus /comma
/hyphen /period /slash /zero /one
/two /three /four /five /six
/seven /eight /nine /colon /semicolon
/less /equal /greater /question /at
/A /B /C /D /E
/F /G /H /I /J
/K /L /M /N /O
/P /Q /R /S /T
/U /V /W /X /Y
/Z /bracketleft /backslash /bracketright /asciicircum
/underscore /quoteleft /a /b /c
/d /e /f /g /h
/i /j /k /l /m
/n /o /p /q /r
/s /t /u /v /w
/x /y /z /braceleft /bar
/braceright /asciitilde /bullet /Euro /bullet
/quotesinglbase /florin /quotedblbase /ellipsis /dagger
/daggerdbl /circumflex /perthousand /Scaron /guilsinglleft
/OE /bullet /Zcaron /bullet /bullet
/quoteleft /quoteright /quotedblleft /quotedblright /bullet
/endash /emdash /asciitilde /trademark /scaron
/guilsinglright /oe /bullet /zcaron /Ydieresis
/space /exclamdown /cent /sterling /currency
/yen /brokenbar /section /dieresis /copyright
/ordfeminine /guillemotleft /logicalnot /sfthyphen /registered
/macron /degree /plusminus /twosuperior /threesuperior
/acute /mu /paragraph /middot /cedilla
/onesuperior /ordmasculine /guillemotright /onequarter /onehalf
/threequarters /questiondown /Agrave /Aacute /Acircumflex
/Atilde /Adieresis /Aring /AE /Ccedilla
/Egrave /Eacute /Ecircumflex /Edieresis /Igrave
/Iacute /Icircumflex /Idieresis /Eth /Ntilde
/Ograve /Oacute /Ocircumflex /Otilde /Odieresis
/multiply /Oslash /Ugrave /Uacute /Ucircumflex
/Udieresis /Yacute /Thorn /germandbls /agrave
/aacute /acircumflex /atilde /adieresis /aring
/ae /ccedilla /egrave /eacute /ecircumflex
/edieresis /igrave /iacute /icircumflex /idieresis
/eth /ntilde /ograve /oacute /ocircumflex
/otilde /odieresis /divide /oslash /ugrave
/uacute /ucircumflex /udieresis /yacute /thorn
/ydieresis
] def
%%EndResource
%FOPBeginFontReencode
/Courier-Bold findfont
dup length dict begin
  {1 index /FID ne {def} {pop pop} ifelse} forall
  /Encoding WinAnsiEncoding def
  currentdict
end
/Courier-Bold exch definefont pop
/Helvetica findfont
dup length dict begin
  {1 index /FID ne {def} {pop pop} ifelse} forall
  /Encoding WinAnsiEncoding def
  currentdict
end
/Helvetica exch definefont pop
/Courier-BoldOblique findfont
dup length dict begin
  {1 index /FID ne {def} {pop pop} ifelse} forall
  /Encoding WinAnsiEncoding def
  currentdict
end
/Courier-BoldOblique exch definefont pop
/Courier-Oblique findfont
dup length dict begin
  {1 index /FID ne {def} {pop pop} ifelse} forall
  /Encoding WinAnsiEncoding def
  currentdict
end
/Courier-Oblique exch definefont pop
/Times-Roman findfont
dup length dict begin
  {1 index /FID ne {def} {pop pop} ifelse} forall
  /Encoding WinAnsiEncoding def
  currentdict
end
/Times-Roman exch definefont pop
/Helvetica-BoldOblique findfont
dup length dict begin
  {1 index /FID ne {def} {pop pop} ifelse} forall
  /Encoding WinAnsiEncoding def
  currentdict
end
/Helvetica-BoldOblique exch definefont pop
/Helvetica-Bold findfont
dup length dict begin
  {1 index /FID ne {def} {pop pop} ifelse} forall
  /Encoding WinAnsiEncoding def
  currentdict
end
/Helvetica-Bold exch definefont pop
/Helvetica-Oblique findfont
dup length dict begin
  {1 index /FID ne {def} {pop pop} ifelse} forall
  /Encoding WinAnsiEncoding def
  currentdict
end
/Helvetica-Oblique exch definefont pop
/Times-BoldItalic findfont
dup length dict begin
  {1 index /FID ne {def} {pop pop} ifelse} forall
  /Encoding WinAnsiEncoding def
  currentdict
end
/Times-BoldItalic exch definefont pop
/Courier findfont
dup length dict begin
  {1 index /FID ne {def} {pop pop} ifelse} forall
  /Encoding WinAnsiEncoding def
  currentdict
end
/Courier exch definefont pop
/Times-Italic findfont
dup length dict begin
  {1 index /FID ne {def} {pop pop} ifelse} forall
  /Encoding WinAnsiEncoding def
  currentdict
end
/Times-Italic exch definefont pop
/Times-Bold findfont
dup length dict begin
  {1 index /FID ne {def} {pop pop} ifelse} forall
  /Encoding WinAnsiEncoding def
  currentdict
end
/Times-Bold exch definefont pop
%FOPEndFontReencode
%%EndProlog
%%Page: 1 1
%%PageBoundingBox: 0 0 410 391
%%BeginPageSetup
[1 0 0 -1 0 391] CT
%%EndPageSetup
GS
[0.75 0 0 0.75 0 0.25] CT
N
0 0 M
547 0 L
547 521 L
0 521 L
0 0 L
cp
clip
1 GC
N
0 0 547 521 re
f
GR
GS
[0.75 0 0 0.75 0 0.25] CT
1 GC
N
0 0 547 521 re
f
GR
GS
[0.75 0 0 0.75 0 0.25] CT
1 GC
N
71 464 M
495 464 L
495 39 L
71 39 L
cp
f
GR
GS
[0.75 0 0 0.75 0 0.25] CT
0.149 GC
2 setlinecap
1 LJ
0.667 LW
N
71 464 M
495 464 L
S
GR
GS
[0.75 0 0 0.75 0 0.25] CT
0.149 GC
2 setlinecap
1 LJ
0.667 LW
N
89.972 464 M
89.972 459.75 L
S
GR
GS
[0.75 0 0 0.75 0 0.25] CT
0.149 GC
2 setlinecap
1 LJ
0.667 LW
N
187.036 464 M
187.036 459.75 L
S
GR
GS
[0.75 0 0 0.75 0 0.25] CT
0.149 GC
2 setlinecap
1 LJ
0.667 LW
N
284.1 464 M
284.1 459.75 L
S
GR
GS
[0.75 0 0 0.75 0 0.25] CT
0.149 GC
2 setlinecap
1 LJ
0.667 LW
N
381.164 464 M
381.164 459.75 L
S
GR
GS
[0.75 0 0 0.75 0 0.25] CT
0.149 GC
2 setlinecap
1 LJ
0.667 LW
N
478.228 464 M
478.228 459.75 L
S
GR
GS
[0.75 0 0 0.75 67.47887 352.25001] CT
0.149 GC
/Helvetica 13 F
GS
[1 0 0 1 0 0] CT
-6.5 13 moveto 
1 -1 scale
(-1) t 
GR
GR
GS
[0.75 0 0 0.75 140.27699 352.25001] CT
0.149 GC
/Helvetica 13 F
GS
[1 0 0 1 0 0] CT
-13 13 moveto 
1 -1 scale
(-0.5) t 
GR
GR
GS
[0.75 0 0 0.75 213.07512 352.25001] CT
0.149 GC
/Helvetica 13 F
GS
[1 0 0 1 0 0] CT
-4.5 13 moveto 
1 -1 scale
(0) t 
GR
GR
GS
[0.75 0 0 0.75 285.87323 352.25001] CT
0.149 GC
/Helvetica 13 F
GS
[1 0 0 1 0 0] CT
-10.5 13 moveto 
1 -1 scale
(0.5) t 
GR
GR
GS
[0.75 0 0 0.75 358.67136 352.25001] CT
0.149 GC
/Helvetica 13 F
GS
[1 0 0 1 0 0] CT
-4.5 13 moveto 
1 -1 scale
(1) t 
GR
GR
GS
[0.75 0 0 0.75 0 0.25] CT
0.149 GC
2 setlinecap
1 LJ
0.667 LW
N
71 464 M
71 39 L
S
GR
GS
[0.75 0 0 0.75 0 0.25] CT
0.149 GC
2 setlinecap
1 LJ
0.667 LW
N
71 464 M
75.25 464 L
S
GR
GS
[0.75 0 0 0.75 0 0.25] CT
0.149 GC
2 setlinecap
1 LJ
0.667 LW
N
71 421.5 M
75.25 421.5 L
S
GR
GS
[0.75 0 0 0.75 0 0.25] CT
0.149 GC
2 setlinecap
1 LJ
0.667 LW
N
71 379 M
75.25 379 L
S
GR
GS
[0.75 0 0 0.75 0 0.25] CT
0.149 GC
2 setlinecap
1 LJ
0.667 LW
N
71 336.5 M
75.25 336.5 L
S
GR
GS
[0.75 0 0 0.75 0 0.25] CT
0.149 GC
2 setlinecap
1 LJ
0.667 LW
N
71 294 M
75.25 294 L
S
GR
GS
[0.75 0 0 0.75 0 0.25] CT
0.149 GC
2 setlinecap
1 LJ
0.667 LW
N
71 251.5 M
75.25 251.5 L
S
GR
GS
[0.75 0 0 0.75 0 0.25] CT
0.149 GC
2 setlinecap
1 LJ
0.667 LW
N
71 209 M
75.25 209 L
S
GR
GS
[0.75 0 0 0.75 0 0.25] CT
0.149 GC
2 setlinecap
1 LJ
0.667 LW
N
71 166.5 M
75.25 166.5 L
S
GR
GS
[0.75 0 0 0.75 0 0.25] CT
0.149 GC
2 setlinecap
1 LJ
0.667 LW
N
71 124 M
75.25 124 L
S
GR
GS
[0.75 0 0 0.75 0 0.25] CT
0.149 GC
2 setlinecap
1 LJ
0.667 LW
N
71 81.5 M
75.25 81.5 L
S
GR
GS
[0.75 0 0 0.75 0 0.25] CT
0.149 GC
2 setlinecap
1 LJ
0.667 LW
N
71 39 M
75.25 39 L
S
GR
GS
[0.75 0 0 0.75 49.25 348.25] CT
0.149 GC
/Helvetica 13 F
GS
[1 0 0 1 0 0] CT
-13 4.5 moveto 
1 -1 scale
(-1) t 
GR
GR
GS
[0.75 0 0 0.75 49.25 316.375] CT
0.149 GC
/Helvetica 13 F
GS
[1 0 0 1 0 0] CT
-26 4.5 moveto 
1 -1 scale
(-0.8) t 
GR
GR
GS
[0.75 0 0 0.75 49.25 284.5] CT
0.149 GC
/Helvetica 13 F
GS
[1 0 0 1 0 0] CT
-26 4.5 moveto 
1 -1 scale
(-0.6) t 
GR
GR
GS
[0.75 0 0 0.75 49.25 252.625] CT
0.149 GC
/Helvetica 13 F
GS
[1 0 0 1 0 0] CT
-26 4.5 moveto 
1 -1 scale
(-0.4) t 
GR
GR
GS
[0.75 0 0 0.75 49.25 220.75] CT
0.149 GC
/Helvetica 13 F
GS
[1 0 0 1 0 0] CT
-26 4.5 moveto 
1 -1 scale
(-0.2) t 
GR
GR
GS
[0.75 0 0 0.75 49.25 188.875] CT
0.149 GC
/Helvetica 13 F
GS
[1 0 0 1 0 0] CT
-9 4.5 moveto 
1 -1 scale
(0) t 
GR
GR
GS
[0.75 0 0 0.75 49.25 157] CT
0.149 GC
/Helvetica 13 F
GS
[1 0 0 1 0 0] CT
-21 4.5 moveto 
1 -1 scale
(0.2) t 
GR
GR
GS
[0.75 0 0 0.75 49.25 125.125] CT
0.149 GC
/Helvetica 13 F
GS
[1 0 0 1 0 0] CT
-21 4.5 moveto 
1 -1 scale
(0.4) t 
GR
GR
GS
[0.75 0 0 0.75 49.25 93.24999] CT
0.149 GC
/Helvetica 13 F
GS
[1 0 0 1 0 0] CT
-21 4.5 moveto 
1 -1 scale
(0.6) t 
GR
GR
GS
[0.75 0 0 0.75 49.25 61.375] CT
0.149 GC
/Helvetica 13 F
GS
[1 0 0 1 0 0] CT
-21 4.5 moveto 
1 -1 scale
(0.8) t 
GR
GR
GS
[0.75 0 0 0.75 49.25 29.5] CT
0.149 GC
/Helvetica 13 F
GS
[1 0 0 1 0 0] CT
-9 4.5 moveto 
1 -1 scale
(1) t 
GR
GR
GS
[0.75 0 0 0.75 0 0.25] CT
0 0 1 RC
1 LJ
N
266 199 M
273 192 L
S
GR
GS
[0.75 0 0 0.75 0 0.25] CT
0 0 1 RC
1 LJ
N
266 192 M
273 199 L
S
GR
GS
[0.75 0 0 0.75 0 0.25] CT
0 0 1 RC
1 LJ
N
268 242 M
275 235 L
S
GR
GS
[0.75 0 0 0.75 0 0.25] CT
0 0 1 RC
1 LJ
N
268 235 M
275 242 L
S
GR
GS
[0.75 0 0 0.75 0 0.25] CT
0 0 1 RC
1 LJ
N
338 266 M
345 259 L
S
GR
GS
[0.75 0 0 0.75 0 0.25] CT
0 0 1 RC
1 LJ
N
338 259 M
345 266 L
S
GR
GS
[0.75 0 0 0.75 0 0.25] CT
0 0 1 RC
1 LJ
N
299 313 M
306 306 L
S
GR
GS
[0.75 0 0 0.75 0 0.25] CT
0 0 1 RC
1 LJ
N
299 306 M
306 313 L
S
GR
GS
[0.75 0 0 0.75 0 0.25] CT
0 0 1 RC
1 LJ
N
248 295 M
255 288 L
S
GR
GS
[0.75 0 0 0.75 0 0.25] CT
0 0 1 RC
1 LJ
N
248 288 M
255 295 L
S
GR
GS
[0.75 0 0 0.75 0 0.25] CT
0 0 1 RC
1 LJ
N
266 301 M
273 294 L
S
GR
GS
[0.75 0 0 0.75 0 0.25] CT
0 0 1 RC
1 LJ
N
266 294 M
273 301 L
S
GR
GS
[0.75 0 0 0.75 0 0.25] CT
0 0 1 RC
1 LJ
N
271 317 M
278 310 L
S
GR
GS
[0.75 0 0 0.75 0 0.25] CT
0 0 1 RC
1 LJ
N
271 310 M
278 317 L
S
GR
GS
[0.75 0 0 0.75 0 0.25] CT
0 0 1 RC
1 LJ
N
336 251 M
343 244 L
S
GR
GS
[0.75 0 0 0.75 0 0.25] CT
0 0 1 RC
1 LJ
N
336 244 M
343 251 L
S
GR
GS
[0.75 0 0 0.75 0 0.25] CT
0 0 1 RC
1 LJ
N
309 278 M
316 271 L
S
GR
GS
[0.75 0 0 0.75 0 0.25] CT
0 0 1 RC
1 LJ
N
309 271 M
316 278 L
S
GR
GS
[0.75 0 0 0.75 0 0.25] CT
0 0 1 RC
1 LJ
N
251 287 M
258 280 L
S
GR
GS
[0.75 0 0 0.75 0 0.25] CT
0 0 1 RC
1 LJ
N
251 280 M
258 287 L
S
GR
GS
[0.75 0 0 0.75 0 0.25] CT
0 0 1 RC
1 LJ
N
287 275 M
294 268 L
S
GR
GS
[0.75 0 0 0.75 0 0.25] CT
0 0 1 RC
1 LJ
N
287 268 M
294 275 L
S
GR
GS
[0.75 0 0 0.75 0 0.25] CT
0 0 1 RC
1 LJ
N
268 209 M
275 202 L
S
GR
GS
[0.75 0 0 0.75 0 0.25] CT
0 0 1 RC
1 LJ
N
268 202 M
275 209 L
S
GR
GS
[0.75 0 0 0.75 0 0.25] CT
0 0 1 RC
1 LJ
N
306 279 M
313 272 L
S
GR
GS
[0.75 0 0 0.75 0 0.25] CT
0 0 1 RC
1 LJ
N
306 272 M
313 279 L
S
GR
GS
[0.75 0 0 0.75 0 0.25] CT
0 0 1 RC
1 LJ
N
336 273 M
343 266 L
S
GR
GS
[0.75 0 0 0.75 0 0.25] CT
0 0 1 RC
1 LJ
N
336 266 M
343 273 L
S
GR
GS
[0.75 0 0 0.75 0 0.25] CT
0 0 1 RC
1 LJ
N
285 276 M
292 269 L
S
GR
GS
[0.75 0 0 0.75 0 0.25] CT
0 0 1 RC
1 LJ
N
285 269 M
292 276 L
S
GR
GS
[0.75 0 0 0.75 0 0.25] CT
0 0 1 RC
1 LJ
N
248 287 M
255 280 L
S
GR
GS
[0.75 0 0 0.75 0 0.25] CT
0 0 1 RC
1 LJ
N
248 280 M
255 287 L
S
GR
GS
[0.75 0 0 0.75 0 0.25] CT
0 0 1 RC
1 LJ
N
235 279 M
242 272 L
S
GR
GS
[0.75 0 0 0.75 0 0.25] CT
0 0 1 RC
1 LJ
N
235 272 M
242 279 L
S
GR
GS
[0.75 0 0 0.75 0 0.25] CT
0 0 1 RC
1 LJ
N
231 229 M
238 222 L
S
GR
GS
[0.75 0 0 0.75 0 0.25] CT
0 0 1 RC
1 LJ
N
231 222 M
238 229 L
S
GR
GS
[0.75 0 0 0.75 0 0.25] CT
0 0 1 RC
1 LJ
N
242 246 M
249 239 L
S
GR
GS
[0.75 0 0 0.75 0 0.25] CT
0 0 1 RC
1 LJ
N
242 239 M
249 246 L
S
GR
GS
[0.75 0 0 0.75 0 0.25] CT
0 0 1 RC
1 LJ
N
252 275 M
259 268 L
S
GR
GS
[0.75 0 0 0.75 0 0.25] CT
0 0 1 RC
1 LJ
N
252 268 M
259 275 L
S
GR
GS
[0.75 0 0 0.75 0 0.25] CT
0 0 1 RC
1 LJ
N
281 272 M
288 265 L
S
GR
GS
[0.75 0 0 0.75 0 0.25] CT
0 0 1 RC
1 LJ
N
281 265 M
288 272 L
S
GR
GS
[0.75 0 0 0.75 0 0.25] CT
0 0 1 RC
1 LJ
N
310 261 M
317 254 L
S
GR
GS
[0.75 0 0 0.75 0 0.25] CT
0 0 1 RC
1 LJ
N
310 254 M
317 261 L
S
GR
GS
[0.75 0 0 0.75 0 0.25] CT
0 0 1 RC
1 LJ
N
272 268 M
279 261 L
S
GR
GS
[0.75 0 0 0.75 0 0.25] CT
0 0 1 RC
1 LJ
N
272 261 M
279 268 L
S
GR
GS
[0.75 0 0 0.75 0 0.25] CT
0 0 1 RC
1 LJ
N
308 251 M
315 244 L
S
GR
GS
[0.75 0 0 0.75 0 0.25] CT
0 0 1 RC
1 LJ
N
308 244 M
315 251 L
S
GR
GS
[0.75 0 0 0.75 0 0.25] CT
0 0 1 RC
1 LJ
N
290 261 M
297 254 L
S
GR
GS
[0.75 0 0 0.75 0 0.25] CT
0 0 1 RC
1 LJ
N
290 254 M
297 261 L
S
GR
GS
[0.75 0 0 0.75 0 0.25] CT
0 0 1 RC
1 LJ
N
303 308 M
310 301 L
S
GR
GS
[0.75 0 0 0.75 0 0.25] CT
0 0 1 RC
1 LJ
N
303 301 M
310 308 L
S
GR
GS
[0.75 0 0 0.75 0 0.25] CT
0 0 1 RC
1 LJ
N
330 241 M
337 234 L
S
GR
GS
[0.75 0 0 0.75 0 0.25] CT
0 0 1 RC
1 LJ
N
330 234 M
337 241 L
S
GR
GS
[0.75 0 0 0.75 0 0.25] CT
0 0 1 RC
1 LJ
N
286 247 M
293 240 L
S
GR
GS
[0.75 0 0 0.75 0 0.25] CT
0 0 1 RC
1 LJ
N
286 240 M
293 247 L
S
GR
GS
[0.75 0 0 0.75 0 0.25] CT
0 0 1 RC
1 LJ
N
307 287 M
314 280 L
S
GR
GS
[0.75 0 0 0.75 0 0.25] CT
0 0 1 RC
1 LJ
N
307 280 M
314 287 L
S
GR
GS
[0.75 0 0 0.75 0 0.25] CT
0 0 1 RC
1 LJ
N
253 198 M
260 191 L
S
GR
GS
[0.75 0 0 0.75 0 0.25] CT
0 0 1 RC
1 LJ
N
253 191 M
260 198 L
S
GR
GS
[0.75 0 0 0.75 0 0.25] CT
0 0 1 RC
1 LJ
N
273 189 M
280 182 L
S
GR
GS
[0.75 0 0 0.75 0 0.25] CT
0 0 1 RC
1 LJ
N
273 182 M
280 189 L
S
GR
GS
[0.75 0 0 0.75 0 0.25] CT
0 0 1 RC
1 LJ
N
278 311 M
285 304 L
S
GR
GS
[0.75 0 0 0.75 0 0.25] CT
0 0 1 RC
1 LJ
N
278 304 M
285 311 L
S
GR
GS
[0.75 0 0 0.75 0 0.25] CT
0 0 1 RC
1 LJ
N
292 195 M
299 188 L
S
GR
GS
[0.75 0 0 0.75 0 0.25] CT
0 0 1 RC
1 LJ
N
292 188 M
299 195 L
S
GR
GS
[0.75 0 0 0.75 0 0.25] CT
0 0 1 RC
1 LJ
N
307 202 M
314 195 L
S
GR
GS
[0.75 0 0 0.75 0 0.25] CT
0 0 1 RC
1 LJ
N
307 195 M
314 202 L
S
GR
GS
[0.75 0 0 0.75 0 0.25] CT
0 0 1 RC
1 LJ
N
283 311 M
290 304 L
S
GR
GS
[0.75 0 0 0.75 0 0.25] CT
0 0 1 RC
1 LJ
N
283 304 M
290 311 L
S
GR
GS
[0.75 0 0 0.75 0 0.25] CT
0 0 1 RC
1 LJ
N
269 200 M
276 193 L
S
GR
GS
[0.75 0 0 0.75 0 0.25] CT
0 0 1 RC
1 LJ
N
269 193 M
276 200 L
S
GR
GS
[0.75 0 0 0.75 0 0.25] CT
0 0 1 RC
1 LJ
N
278 205 M
285 198 L
S
GR
GS
[0.75 0 0 0.75 0 0.25] CT
0 0 1 RC
1 LJ
N
278 198 M
285 205 L
S
GR
GS
[0.75 0 0 0.75 0 0.25] CT
0 0 1 RC
1 LJ
N
327 232 M
334 225 L
S
GR
GS
[0.75 0 0 0.75 0 0.25] CT
0 0 1 RC
1 LJ
N
327 225 M
334 232 L
S
GR
GS
[0.75 0 0 0.75 0 0.25] CT
0 0 1 RC
1 LJ
N
234 280 M
241 273 L
S
GR
GS
[0.75 0 0 0.75 0 0.25] CT
0 0 1 RC
1 LJ
N
234 273 M
241 280 L
S
GR
GS
[0.75 0 0 0.75 0 0.25] CT
0 0 1 RC
1 LJ
N
256 244 M
263 237 L
S
GR
GS
[0.75 0 0 0.75 0 0.25] CT
0 0 1 RC
1 LJ
N
256 237 M
263 244 L
S
GR
GS
[0.75 0 0 0.75 0 0.25] CT
0 0 1 RC
1 LJ
N
252 240 M
259 233 L
S
GR
GS
[0.75 0 0 0.75 0 0.25] CT
0 0 1 RC
1 LJ
N
252 233 M
259 240 L
S
GR
GS
[0.75 0 0 0.75 0 0.25] CT
0 0 1 RC
1 LJ
N
233 290 M
240 283 L
S
GR
GS
[0.75 0 0 0.75 0 0.25] CT
0 0 1 RC
1 LJ
N
233 283 M
240 290 L
S
GR
GS
[0.75 0 0 0.75 0 0.25] CT
0 0 1 RC
1 LJ
N
231 294 M
238 287 L
S
GR
GS
[0.75 0 0 0.75 0 0.25] CT
0 0 1 RC
1 LJ
N
231 287 M
238 294 L
S
GR
GS
[0.75 0 0 0.75 0 0.25] CT
0 0 1 RC
1 LJ
N
304 308 M
311 301 L
S
GR
GS
[0.75 0 0 0.75 0 0.25] CT
0 0 1 RC
1 LJ
N
304 301 M
311 308 L
S
GR
GS
[0.75 0 0 0.75 0 0.25] CT
0 0 1 RC
1 LJ
N
241 214 M
248 207 L
S
GR
GS
[0.75 0 0 0.75 0 0.25] CT
0 0 1 RC
1 LJ
N
241 207 M
248 214 L
S
GR
GS
[0.75 0 0 0.75 0 0.25] CT
0 0 1 RC
1 LJ
N
271 214 M
278 207 L
S
GR
GS
[0.75 0 0 0.75 0 0.25] CT
0 0 1 RC
1 LJ
N
271 207 M
278 214 L
S
GR
GS
[0.75 0 0 0.75 0 0.25] CT
0 0 1 RC
1 LJ
N
244 210 M
251 203 L
S
GR
GS
[0.75 0 0 0.75 0 0.25] CT
0 0 1 RC
1 LJ
N
244 203 M
251 210 L
S
GR
GS
[0.75 0 0 0.75 0 0.25] CT
0 0 1 RC
1 LJ
N
321 236 M
328 229 L
S
GR
GS
[0.75 0 0 0.75 0 0.25] CT
0 0 1 RC
1 LJ
N
321 229 M
328 236 L
S
GR
GS
[0.75 0 0 0.75 0 0.25] CT
0 0 1 RC
1 LJ
N
285 257 M
292 250 L
S
GR
GS
[0.75 0 0 0.75 0 0.25] CT
0 0 1 RC
1 LJ
N
285 250 M
292 257 L
S
GR
GS
[0.75 0 0 0.75 0 0.25] CT
0 0 1 RC
1 LJ
N
294 197 M
301 190 L
S
GR
GS
[0.75 0 0 0.75 0 0.25] CT
0 0 1 RC
1 LJ
N
294 190 M
301 197 L
S
GR
GS
[0.75 0 0 0.75 0 0.25] CT
0 0 1 RC
1 LJ
N
254 219 M
261 212 L
S
GR
GS
[0.75 0 0 0.75 0 0.25] CT
0 0 1 RC
1 LJ
N
254 212 M
261 219 L
S
GR
GS
[0.75 0 0 0.75 0 0.25] CT
0 0 1 RC
1 LJ
N
252 233 M
259 226 L
S
GR
GS
[0.75 0 0 0.75 0 0.25] CT
0 0 1 RC
1 LJ
N
252 226 M
259 233 L
S
GR
GS
[0.75 0 0 0.75 0 0.25] CT
0 0 1 RC
1 LJ
N
265 245 M
272 238 L
S
GR
GS
[0.75 0 0 0.75 0 0.25] CT
0 0 1 RC
1 LJ
N
265 238 M
272 245 L
S
GR
GS
[0.75 0 0 0.75 0 0.25] CT
0 0 1 RC
1 LJ
N
294 276 M
301 269 L
S
GR
GS
[0.75 0 0 0.75 0 0.25] CT
0 0 1 RC
1 LJ
N
294 269 M
301 276 L
S
GR
GS
[0.75 0 0 0.75 0 0.25] CT
0 0 1 RC
1 LJ
N
335 283 M
342 276 L
S
GR
GS
[0.75 0 0 0.75 0 0.25] CT
0 0 1 RC
1 LJ
N
335 276 M
342 283 L
S
GR
GS
[0.75 0 0 0.75 0 0.25] CT
0 0 1 RC
1 LJ
N
263 205 M
270 198 L
S
GR
GS
[0.75 0 0 0.75 0 0.25] CT
0 0 1 RC
1 LJ
N
263 198 M
270 205 L
S
GR
GS
[0.75 0 0 0.75 0 0.25] CT
0 0 1 RC
1 LJ
N
236 213 M
243 206 L
S
GR
GS
[0.75 0 0 0.75 0 0.25] CT
0 0 1 RC
1 LJ
N
236 206 M
243 213 L
S
GR
GS
[0.75 0 0 0.75 0 0.25] CT
0 0 1 RC
1 LJ
N
237 283 M
244 276 L
S
GR
GS
[0.75 0 0 0.75 0 0.25] CT
0 0 1 RC
1 LJ
N
237 276 M
244 283 L
S
GR
GS
[0.75 0 0 0.75 0 0.25] CT
0 0 1 RC
1 LJ
N
287 320 M
294 313 L
S
GR
GS
[0.75 0 0 0.75 0 0.25] CT
0 0 1 RC
1 LJ
N
287 313 M
294 320 L
S
GR
GS
[0.75 0 0 0.75 0 0.25] CT
0 0 1 RC
1 LJ
N
337 231 M
344 224 L
S
GR
GS
[0.75 0 0 0.75 0 0.25] CT
0 0 1 RC
1 LJ
N
337 224 M
344 231 L
S
GR
GS
[0.75 0 0 0.75 0 0.25] CT
0 0 1 RC
1 LJ
N
255 220 M
262 213 L
S
GR
GS
[0.75 0 0 0.75 0 0.25] CT
0 0 1 RC
1 LJ
N
255 213 M
262 220 L
S
GR
GS
[0.75 0 0 0.75 0 0.25] CT
0 0 1 RC
1 LJ
N
247 296 M
254 289 L
S
GR
GS
[0.75 0 0 0.75 0 0.25] CT
0 0 1 RC
1 LJ
N
247 289 M
254 296 L
S
GR
GS
[0.75 0 0 0.75 0 0.25] CT
0 0 1 RC
1 LJ
N
305 250 M
312 243 L
S
GR
GS
[0.75 0 0 0.75 0 0.25] CT
0 0 1 RC
1 LJ
N
305 243 M
312 250 L
S
GR
GS
[0.75 0 0 0.75 0 0.25] CT
0 0 1 RC
1 LJ
N
261 237 M
268 230 L
S
GR
GS
[0.75 0 0 0.75 0 0.25] CT
0 0 1 RC
1 LJ
N
261 230 M
268 237 L
S
GR
GS
[0.75 0 0 0.75 0 0.25] CT
0 0 1 RC
1 LJ
N
256 223 M
263 216 L
S
GR
GS
[0.75 0 0 0.75 0 0.25] CT
0 0 1 RC
1 LJ
N
256 216 M
263 223 L
S
GR
GS
[0.75 0 0 0.75 0 0.25] CT
0 0 1 RC
1 LJ
N
335 269 M
342 262 L
S
GR
GS
[0.75 0 0 0.75 0 0.25] CT
0 0 1 RC
1 LJ
N
335 262 M
342 269 L
S
GR
GS
[0.75 0 0 0.75 0 0.25] CT
0 0 1 RC
1 LJ
N
250 241 M
257 234 L
S
GR
GS
[0.75 0 0 0.75 0 0.25] CT
0 0 1 RC
1 LJ
N
250 234 M
257 241 L
S
GR
GS
[0.75 0 0 0.75 0 0.25] CT
0 0 1 RC
1 LJ
N
244 231 M
251 224 L
S
GR
GS
[0.75 0 0 0.75 0 0.25] CT
0 0 1 RC
1 LJ
N
244 224 M
251 231 L
S
GR
GS
[0.75 0 0 0.75 0 0.25] CT
0 0 1 RC
1 LJ
N
268 289 M
275 282 L
S
GR
GS
[0.75 0 0 0.75 0 0.25] CT
0 0 1 RC
1 LJ
N
268 282 M
275 289 L
S
GR
GS
[0.75 0 0 0.75 0 0.25] CT
0 0 1 RC
1 LJ
N
270 211 M
277 204 L
S
GR
GS
[0.75 0 0 0.75 0 0.25] CT
0 0 1 RC
1 LJ
N
270 204 M
277 211 L
S
GR
GS
[0.75 0 0 0.75 0 0.25] CT
0 0 1 RC
1 LJ
N
275 196 M
282 189 L
S
GR
GS
[0.75 0 0 0.75 0 0.25] CT
0 0 1 RC
1 LJ
N
275 189 M
282 196 L
S
GR
GS
[0.75 0 0 0.75 0 0.25] CT
0 0 1 RC
1 LJ
N
276 215 M
283 208 L
S
GR
GS
[0.75 0 0 0.75 0 0.25] CT
0 0 1 RC
1 LJ
N
276 208 M
283 215 L
S
GR
GS
[0.75 0 0 0.75 0 0.25] CT
0 0 1 RC
1 LJ
N
277 209 M
284 202 L
S
GR
GS
[0.75 0 0 0.75 0 0.25] CT
0 0 1 RC
1 LJ
N
277 202 M
284 209 L
S
GR
GS
[0.75 0 0 0.75 0 0.25] CT
0 0 1 RC
1 LJ
N
271 294 M
278 287 L
S
GR
GS
[0.75 0 0 0.75 0 0.25] CT
0 0 1 RC
1 LJ
N
271 287 M
278 294 L
S
GR
GS
[0.75 0 0 0.75 0 0.25] CT
0 0 1 RC
1 LJ
N
260 260 M
267 253 L
S
GR
GS
[0.75 0 0 0.75 0 0.25] CT
0 0 1 RC
1 LJ
N
260 253 M
267 260 L
S
GR
GS
[0.75 0 0 0.75 0 0.25] CT
0 0 1 RC
1 LJ
N
288 201 M
295 194 L
S
GR
GS
[0.75 0 0 0.75 0 0.25] CT
0 0 1 RC
1 LJ
N
288 194 M
295 201 L
S
GR
GS
[0.75 0 0 0.75 0 0.25] CT
0 0 1 RC
1 LJ
N
249 219 M
256 212 L
S
GR
GS
[0.75 0 0 0.75 0 0.25] CT
0 0 1 RC
1 LJ
N
249 212 M
256 219 L
S
GR
GS
[0.75 0 0 0.75 0 0.25] CT
0 0 1 RC
1 LJ
N
282 278 M
289 271 L
S
GR
GS
[0.75 0 0 0.75 0 0.25] CT
0 0 1 RC
1 LJ
N
282 271 M
289 278 L
S
GR
GS
[0.75 0 0 0.75 0 0.25] CT
0 0 1 RC
1 LJ
N
272 229 M
279 222 L
S
GR
GS
[0.75 0 0 0.75 0 0.25] CT
0 0 1 RC
1 LJ
N
272 222 M
279 229 L
S
GR
GS
[0.75 0 0 0.75 0 0.25] CT
0 0 1 RC
1 LJ
N
259 274 M
266 267 L
S
GR
GS
[0.75 0 0 0.75 0 0.25] CT
0 0 1 RC
1 LJ
N
259 267 M
266 274 L
S
GR
GS
[0.75 0 0 0.75 0 0.25] CT
0 0 1 RC
1 LJ
N
235 291 M
242 284 L
S
GR
GS
[0.75 0 0 0.75 0 0.25] CT
0 0 1 RC
1 LJ
N
235 284 M
242 291 L
S
GR
GS
[0.75 0 0 0.75 0 0.25] CT
0 0 1 RC
1 LJ
N
277 237 M
284 230 L
S
GR
GS
[0.75 0 0 0.75 0 0.25] CT
0 0 1 RC
1 LJ
N
277 230 M
284 237 L
S
GR
GS
[0.75 0 0 0.75 0 0.25] CT
0 0 1 RC
1 LJ
N
263 251 M
270 244 L
S
GR
GS
[0.75 0 0 0.75 0 0.25] CT
0 0 1 RC
1 LJ
N
263 244 M
270 251 L
S
GR
GS
[0.75 0 0 0.75 0 0.25] CT
0 0 1 RC
1 LJ
N
263 204 M
270 197 L
S
GR
GS
[0.75 0 0 0.75 0 0.25] CT
0 0 1 RC
1 LJ
N
263 197 M
270 204 L
S
GR
GS
[0.75 0 0 0.75 0 0.25] CT
0 0 1 RC
1 LJ
N
256 277 M
263 270 L
S
GR
GS
[0.75 0 0 0.75 0 0.25] CT
0 0 1 RC
1 LJ
N
256 270 M
263 277 L
S
GR
GS
[0.75 0 0 0.75 0 0.25] CT
0 0 1 RC
1 LJ
N
255 264 M
262 257 L
S
GR
GS
[0.75 0 0 0.75 0 0.25] CT
0 0 1 RC
1 LJ
N
255 257 M
262 264 L
S
GR
GS
[0.75 0 0 0.75 0 0.25] CT
0 0 1 RC
1 LJ
N
238 211 M
245 204 L
S
GR
GS
[0.75 0 0 0.75 0 0.25] CT
0 0 1 RC
1 LJ
N
238 204 M
245 211 L
S
GR
GS
[0.75 0 0 0.75 0 0.25] CT
0 0 1 RC
1 LJ
N
229 275 M
236 268 L
S
GR
GS
[0.75 0 0 0.75 0 0.25] CT
0 0 1 RC
1 LJ
N
229 268 M
236 275 L
S
GR
GS
[0.75 0 0 0.75 0 0.25] CT
0 0 1 RC
1 LJ
N
268 193 M
275 186 L
S
GR
GS
[0.75 0 0 0.75 0 0.25] CT
0 0 1 RC
1 LJ
N
268 186 M
275 193 L
S
GR
GS
[0.75 0 0 0.75 0 0.25] CT
0 0 1 RC
1 LJ
N
252 307 M
259 300 L
S
GR
GS
[0.75 0 0 0.75 0 0.25] CT
0 0 1 RC
1 LJ
N
252 300 M
259 307 L
S
GR
GS
[0.75 0 0 0.75 0 0.25] CT
0 0 1 RC
1 LJ
N
317 240 M
324 233 L
S
GR
GS
[0.75 0 0 0.75 0 0.25] CT
0 0 1 RC
1 LJ
N
317 233 M
324 240 L
S
GR
GS
[0.75 0 0 0.75 0 0.25] CT
0 0 1 RC
1 LJ
N
242 265 M
249 258 L
S
GR
GS
[0.75 0 0 0.75 0 0.25] CT
0 0 1 RC
1 LJ
N
242 258 M
249 265 L
S
GR
GS
[0.75 0 0 0.75 0 0.25] CT
0 0 1 RC
1 LJ
N
306 285 M
313 278 L
S
GR
GS
[0.75 0 0 0.75 0 0.25] CT
0 0 1 RC
1 LJ
N
306 278 M
313 285 L
S
GR
GS
[0.75 0 0 0.75 0 0.25] CT
0 0 1 RC
1 LJ
N
309 227 M
316 220 L
S
GR
GS
[0.75 0 0 0.75 0 0.25] CT
0 0 1 RC
1 LJ
N
309 220 M
316 227 L
S
GR
GS
[0.75 0 0 0.75 0 0.25] CT
0 0 1 RC
1 LJ
N
248 303 M
255 296 L
S
GR
GS
[0.75 0 0 0.75 0 0.25] CT
0 0 1 RC
1 LJ
N
248 296 M
255 303 L
S
GR
GS
[0.75 0 0 0.75 0 0.25] CT
0 0 1 RC
1 LJ
N
229 284 M
236 277 L
S
GR
GS
[0.75 0 0 0.75 0 0.25] CT
0 0 1 RC
1 LJ
N
229 277 M
236 284 L
S
GR
GS
[0.75 0 0 0.75 0 0.25] CT
0 0 1 RC
1 LJ
N
295 251 M
302 244 L
S
GR
GS
[0.75 0 0 0.75 0 0.25] CT
0 0 1 RC
1 LJ
N
295 244 M
302 251 L
S
GR
GS
[0.75 0 0 0.75 0 0.25] CT
0 0 1 RC
1 LJ
N
319 270 M
326 263 L
S
GR
GS
[0.75 0 0 0.75 0 0.25] CT
0 0 1 RC
1 LJ
N
319 263 M
326 270 L
S
GR
GS
[0.75 0 0 0.75 82.62815 182.62148] CT
1 0 0 RC
N
3.333 0 M
3.333 1.841 1.841 3.333 0 3.333 C
-1.841 3.333 -3.333 1.841 -3.333 0 C
-3.333 -1.841 -1.841 -3.333 0 -3.333 C
1.841 -3.333 3.333 -1.841 3.333 0 C
cp
f
GR
GS
[0.75 0 0 0.75 165.27793 54.2226] CT
1 0 0 RC
N
3.333 0 M
3.333 1.841 1.841 3.333 0 3.333 C
-1.841 3.333 -3.333 1.841 -3.333 0 C
-3.333 -1.841 -1.841 -3.333 0 -3.333 C
1.841 -3.333 3.333 -1.841 3.333 0 C
cp
f
GR
GS
[0.75 0 0 0.75 110.10441 278.53516] CT
1 0 0 RC
N
3.333 0 M
3.333 1.841 1.841 3.333 0 3.333 C
-1.841 3.333 -3.333 1.841 -3.333 0 C
-3.333 -1.841 -1.841 -3.333 0 -3.333 C
1.841 -3.333 3.333 -1.841 3.333 0 C
cp
f
GR
GS
[0.75 0 0 0.75 188.17077 336.87576] CT
1 0 0 RC
N
3.333 0 M
3.333 1.841 1.841 3.333 0 3.333 C
-1.841 3.333 -3.333 1.841 -3.333 0 C
-3.333 -1.841 -1.841 -3.333 0 -3.333 C
1.841 -3.333 3.333 -1.841 3.333 0 C
cp
f
GR
GS
[0.75 0 0 0.75 75.3322 199.94718] CT
1 0 0 RC
N
3.333 0 M
3.333 1.841 1.841 3.333 0 3.333 C
-1.841 3.333 -3.333 1.841 -3.333 0 C
-3.333 -1.841 -1.841 -3.333 0 -3.333 C
1.841 -3.333 3.333 -1.841 3.333 0 C
cp
f
GR
GS
[0.75 0 0 0.75 326.38548 270.43601] CT
1 0 0 RC
N
3.333 0 M
3.333 1.841 1.841 3.333 0 3.333 C
-1.841 3.333 -3.333 1.841 -3.333 0 C
-3.333 -1.841 -1.841 -3.333 0 -3.333 C
1.841 -3.333 3.333 -1.841 3.333 0 C
cp
f
GR
GS
[0.75 0 0 0.75 98.12981 112.80549] CT
1 0 0 RC
N
3.333 0 M
3.333 1.841 1.841 3.333 0 3.333 C
-1.841 3.333 -3.333 1.841 -3.333 0 C
-3.333 -1.841 -1.841 -3.333 0 -3.333 C
1.841 -3.333 3.333 -1.841 3.333 0 C
cp
f
GR
GS
[0.75 0 0 0.75 76.51036 166.88737] CT
1 0 0 RC
N
3.333 0 M
3.333 1.841 1.841 3.333 0 3.333 C
-1.841 3.333 -3.333 1.841 -3.333 0 C
-3.333 -1.841 -1.841 -3.333 0 -3.333 C
1.841 -3.333 3.333 -1.841 3.333 0 C
cp
f
GR
GS
[0.75 0 0 0.75 73.50544 155.97082] CT
1 0 0 RC
N
3.333 0 M
3.333 1.841 1.841 3.333 0 3.333 C
-1.841 3.333 -3.333 1.841 -3.333 0 C
-3.333 -1.841 -1.841 -3.333 0 -3.333 C
1.841 -3.333 3.333 -1.841 3.333 0 C
cp
f
GR
GS
[0.75 0 0 0.75 81.93463 148.50812] CT
1 0 0 RC
N
3.333 0 M
3.333 1.841 1.841 3.333 0 3.333 C
-1.841 3.333 -3.333 1.841 -3.333 0 C
-3.333 -1.841 -1.841 -3.333 0 -3.333 C
1.841 -3.333 3.333 -1.841 3.333 0 C
cp
f
GR
GS
[0.75 0 0 0.75 88.57591 243.17646] CT
1 0 0 RC
N
3.333 0 M
3.333 1.841 1.841 3.333 0 3.333 C
-1.841 3.333 -3.333 1.841 -3.333 0 C
-3.333 -1.841 -1.841 -3.333 0 -3.333 C
1.841 -3.333 3.333 -1.841 3.333 0 C
cp
f
GR
GS
[0.75 0 0 0.75 336.74705 128.77909] CT
1 0 0 RC
N
3.333 0 M
3.333 1.841 1.841 3.333 0 3.333 C
-1.841 3.333 -3.333 1.841 -3.333 0 C
-3.333 -1.841 -1.841 -3.333 0 -3.333 C
1.841 -3.333 3.333 -1.841 3.333 0 C
cp
f
GR
GS
[0.75 0 0 0.75 335.43166 112.8652] CT
1 0 0 RC
N
3.333 0 M
3.333 1.841 1.841 3.333 0 3.333 C
-1.841 3.333 -3.333 1.841 -3.333 0 C
-3.333 -1.841 -1.841 -3.333 0 -3.333 C
1.841 -3.333 3.333 -1.841 3.333 0 C
cp
f
GR
GS
[0.75 0 0 0.75 270.78133 60.01295] CT
1 0 0 RC
N
3.333 0 M
3.333 1.841 1.841 3.333 0 3.333 C
-1.841 3.333 -3.333 1.841 -3.333 0 C
-3.333 -1.841 -1.841 -3.333 0 -3.333 C
1.841 -3.333 3.333 -1.841 3.333 0 C
cp
f
GR
GS
[0.75 0 0 0.75 302.96164 75.1611] CT
1 0 0 RC
N
3.333 0 M
3.333 1.841 1.841 3.333 0 3.333 C
-1.841 3.333 -3.333 1.841 -3.333 0 C
-3.333 -1.841 -1.841 -3.333 0 -3.333 C
1.841 -3.333 3.333 -1.841 3.333 0 C
cp
f
GR
GS
[0.75 0 0 0.75 314.75393 300.50069] CT
1 0 0 RC
N
3.333 0 M
3.333 1.841 1.841 3.333 0 3.333 C
-1.841 3.333 -3.333 1.841 -3.333 0 C
-3.333 -1.841 -1.841 -3.333 0 -3.333 C
1.841 -3.333 3.333 -1.841 3.333 0 C
cp
f
GR
GS
[0.75 0 0 0.75 113.29502 289.14594] CT
1 0 0 RC
N
3.333 0 M
3.333 1.841 1.841 3.333 0 3.333 C
-1.841 3.333 -3.333 1.841 -3.333 0 C
-3.333 -1.841 -1.841 -3.333 0 -3.333 C
1.841 -3.333 3.333 -1.841 3.333 0 C
cp
f
GR
GS
[0.75 0 0 0.75 87.29546 143.11563] CT
1 0 0 RC
N
3.333 0 M
3.333 1.841 1.841 3.333 0 3.333 C
-1.841 3.333 -3.333 1.841 -3.333 0 C
-3.333 -1.841 -1.841 -3.333 0 -3.333 C
1.841 -3.333 3.333 -1.841 3.333 0 C
cp
f
GR
GS
[0.75 0 0 0.75 75.9047 208.30409] CT
1 0 0 RC
N
3.333 0 M
3.333 1.841 1.841 3.333 0 3.333 C
-1.841 3.333 -3.333 1.841 -3.333 0 C
-3.333 -1.841 -1.841 -3.333 0 -3.333 C
1.841 -3.333 3.333 -1.841 3.333 0 C
cp
f
GR
GS
[0.75 0 0 0.75 106.73459 100.53157] CT
1 0 0 RC
N
3.333 0 M
3.333 1.841 1.841 3.333 0 3.333 C
-1.841 3.333 -3.333 1.841 -3.333 0 C
-3.333 -1.841 -1.841 -3.333 0 -3.333 C
1.841 -3.333 3.333 -1.841 3.333 0 C
cp
f
GR
GS
[0.75 0 0 0.75 99.8578 268.17864] CT
1 0 0 RC
N
3.333 0 M
3.333 1.841 1.841 3.333 0 3.333 C
-1.841 3.333 -3.333 1.841 -3.333 0 C
-3.333 -1.841 -1.841 -3.333 0 -3.333 C
1.841 -3.333 3.333 -1.841 3.333 0 C
cp
f
GR
GS
[0.75 0 0 0.75 135.45971 70.51425] CT
1 0 0 RC
N
3.333 0 M
3.333 1.841 1.841 3.333 0 3.333 C
-1.841 3.333 -3.333 1.841 -3.333 0 C
-3.333 -1.841 -1.841 -3.333 0 -3.333 C
1.841 -3.333 3.333 -1.841 3.333 0 C
cp
f
GR
GS
[0.75 0 0 0.75 245.72971 35.50885] CT
1 0 0 RC
N
3.333 0 M
3.333 1.841 1.841 3.333 0 3.333 C
-1.841 3.333 -3.333 1.841 -3.333 0 C
-3.333 -1.841 -1.841 -3.333 0 -3.333 C
1.841 -3.333 3.333 -1.841 3.333 0 C
cp
f
GR
GS
[0.75 0 0 0.75 80.41347 246.56883] CT
1 0 0 RC
N
3.333 0 M
3.333 1.841 1.841 3.333 0 3.333 C
-1.841 3.333 -3.333 1.841 -3.333 0 C
-3.333 -1.841 -1.841 -3.333 0 -3.333 C
1.841 -3.333 3.333 -1.841 3.333 0 C
cp
f
GR
GS
[0.75 0 0 0.75 304.91226 66.47145] CT
1 0 0 RC
N
3.333 0 M
3.333 1.841 1.841 3.333 0 3.333 C
-1.841 3.333 -3.333 1.841 -3.333 0 C
-3.333 -1.841 -1.841 -3.333 0 -3.333 C
1.841 -3.333 3.333 -1.841 3.333 0 C
cp
f
GR
GS
[0.75 0 0 0.75 339.74615 226.5882] CT
1 0 0 RC
N
3.333 0 M
3.333 1.841 1.841 3.333 0 3.333 C
-1.841 3.333 -3.333 1.841 -3.333 0 C
-3.333 -1.841 -1.841 -3.333 0 -3.333 C
1.841 -3.333 3.333 -1.841 3.333 0 C
cp
f
GR
GS
[0.75 0 0 0.75 73.87868 206.66292] CT
1 0 0 RC
N
3.333 0 M
3.333 1.841 1.841 3.333 0 3.333 C
-1.841 3.333 -3.333 1.841 -3.333 0 C
-3.333 -1.841 -1.841 -3.333 0 -3.333 C
1.841 -3.333 3.333 -1.841 3.333 0 C
cp
f
GR
GS
[0.75 0 0 0.75 307.93785 77.63329] CT
1 0 0 RC
N
3.333 0 M
3.333 1.841 1.841 3.333 0 3.333 C
-1.841 3.333 -3.333 1.841 -3.333 0 C
-3.333 -1.841 -1.841 -3.333 0 -3.333 C
1.841 -3.333 3.333 -1.841 3.333 0 C
cp
f
GR
GS
[0.75 0 0 0.75 258.34904 47.77898] CT
1 0 0 RC
N
3.333 0 M
3.333 1.841 1.841 3.333 0 3.333 C
-1.841 3.333 -3.333 1.841 -3.333 0 C
-3.333 -1.841 -1.841 -3.333 0 -3.333 C
1.841 -3.333 3.333 -1.841 3.333 0 C
cp
f
GR
GS
[0.75 0 0 0.75 110.43061 286.80051] CT
1 0 0 RC
N
3.333 0 M
3.333 1.841 1.841 3.333 0 3.333 C
-1.841 3.333 -3.333 1.841 -3.333 0 C
-3.333 -1.841 -1.841 -3.333 0 -3.333 C
1.841 -3.333 3.333 -1.841 3.333 0 C
cp
f
GR
GS
[0.75 0 0 0.75 158.64066 318.88322] CT
1 0 0 RC
N
3.333 0 M
3.333 1.841 1.841 3.333 0 3.333 C
-1.841 3.333 -3.333 1.841 -3.333 0 C
-3.333 -1.841 -1.841 -3.333 0 -3.333 C
1.841 -3.333 3.333 -1.841 3.333 0 C
cp
f
GR
GS
[0.75 0 0 0.75 267.58688 51.85509] CT
1 0 0 RC
N
3.333 0 M
3.333 1.841 1.841 3.333 0 3.333 C
-1.841 3.333 -3.333 1.841 -3.333 0 C
-3.333 -1.841 -1.841 -3.333 0 -3.333 C
1.841 -3.333 3.333 -1.841 3.333 0 C
cp
f
GR
GS
[0.75 0 0 0.75 106.74974 275.41078] CT
1 0 0 RC
N
3.333 0 M
3.333 1.841 1.841 3.333 0 3.333 C
-1.841 3.333 -3.333 1.841 -3.333 0 C
-3.333 -1.841 -1.841 -3.333 0 -3.333 C
1.841 -3.333 3.333 -1.841 3.333 0 C
cp
f
GR
GS
[0.75 0 0 0.75 95.9783 121.25916] CT
1 0 0 RC
N
3.333 0 M
3.333 1.841 1.841 3.333 0 3.333 C
-1.841 3.333 -3.333 1.841 -3.333 0 C
-3.333 -1.841 -1.841 -3.333 0 -3.333 C
1.841 -3.333 3.333 -1.841 3.333 0 C
cp
f
GR
GS
[0.75 0 0 0.75 106.08371 82.78642] CT
1 0 0 RC
N
3.333 0 M
3.333 1.841 1.841 3.333 0 3.333 C
-1.841 3.333 -3.333 1.841 -3.333 0 C
-3.333 -1.841 -1.841 -3.333 0 -3.333 C
1.841 -3.333 3.333 -1.841 3.333 0 C
cp
f
GR
GS
[0.75 0 0 0.75 344.11727 171.52632] CT
1 0 0 RC
N
3.333 0 M
3.333 1.841 1.841 3.333 0 3.333 C
-1.841 3.333 -3.333 1.841 -3.333 0 C
-3.333 -1.841 -1.841 -3.333 0 -3.333 C
1.841 -3.333 3.333 -1.841 3.333 0 C
cp
f
GR
GS
[0.75 0 0 0.75 334.48082 273.19658] CT
1 0 0 RC
N
3.333 0 M
3.333 1.841 1.841 3.333 0 3.333 C
-1.841 3.333 -3.333 1.841 -3.333 0 C
-3.333 -1.841 -1.841 -3.333 0 -3.333 C
1.841 -3.333 3.333 -1.841 3.333 0 C
cp
f
GR
GS
[0.75 0 0 0.75 73.72008 232.36234] CT
1 0 0 RC
N
3.333 0 M
3.333 1.841 1.841 3.333 0 3.333 C
-1.841 3.333 -3.333 1.841 -3.333 0 C
-3.333 -1.841 -1.841 -3.333 0 -3.333 C
1.841 -3.333 3.333 -1.841 3.333 0 C
cp
f
GR
GS
[0.75 0 0 0.75 278.83818 47.05896] CT
1 0 0 RC
N
3.333 0 M
3.333 1.841 1.841 3.333 0 3.333 C
-1.841 3.333 -3.333 1.841 -3.333 0 C
-3.333 -1.841 -1.841 -3.333 0 -3.333 C
1.841 -3.333 3.333 -1.841 3.333 0 C
cp
f
GR
GS
[0.75 0 0 0.75 321.30343 96.57796] CT
1 0 0 RC
N
3.333 0 M
3.333 1.841 1.841 3.333 0 3.333 C
-1.841 3.333 -3.333 1.841 -3.333 0 C
-3.333 -1.841 -1.841 -3.333 0 -3.333 C
1.841 -3.333 3.333 -1.841 3.333 0 C
cp
f
GR
GS
[0.75 0 0 0.75 78.67858 161.29205] CT
1 0 0 RC
N
3.333 0 M
3.333 1.841 1.841 3.333 0 3.333 C
-1.841 3.333 -3.333 1.841 -3.333 0 C
-3.333 -1.841 -1.841 -3.333 0 -3.333 C
1.841 -3.333 3.333 -1.841 3.333 0 C
cp
f
GR
GS
[0.75 0 0 0.75 271.24899 52.21867] CT
1 0 0 RC
N
3.333 0 M
3.333 1.841 1.841 3.333 0 3.333 C
-1.841 3.333 -3.333 1.841 -3.333 0 C
-3.333 -1.841 -1.841 -3.333 0 -3.333 C
1.841 -3.333 3.333 -1.841 3.333 0 C
cp
f
GR
GS
[0.75 0 0 0.75 335.78503 269.71677] CT
1 0 0 RC
N
3.333 0 M
3.333 1.841 1.841 3.333 0 3.333 C
-1.841 3.333 -3.333 1.841 -3.333 0 C
-3.333 -1.841 -1.841 -3.333 0 -3.333 C
1.841 -3.333 3.333 -1.841 3.333 0 C
cp
f
GR
GS
[0.75 0 0 0.75 79.18444 213.63084] CT
1 0 0 RC
N
3.333 0 M
3.333 1.841 1.841 3.333 0 3.333 C
-1.841 3.333 -3.333 1.841 -3.333 0 C
-3.333 -1.841 -1.841 -3.333 0 -3.333 C
1.841 -3.333 3.333 -1.841 3.333 0 C
cp
f
GR
GS
[0.75 0 0 0.75 80.50764 125.01954] CT
1 0 0 RC
N
3.333 0 M
3.333 1.841 1.841 3.333 0 3.333 C
-1.841 3.333 -3.333 1.841 -3.333 0 C
-3.333 -1.841 -1.841 -3.333 0 -3.333 C
1.841 -3.333 3.333 -1.841 3.333 0 C
cp
f
GR
GS
[0.75 0 0 0.75 164.90967 45.84377] CT
1 0 0 RC
N
3.333 0 M
3.333 1.841 1.841 3.333 0 3.333 C
-1.841 3.333 -3.333 1.841 -3.333 0 C
-3.333 -1.841 -1.841 -3.333 0 -3.333 C
1.841 -3.333 3.333 -1.841 3.333 0 C
cp
f
GR
GS
[0.75 0 0 0.75 318.60214 84.86151] CT
1 0 0 RC
N
3.333 0 M
3.333 1.841 1.841 3.333 0 3.333 C
-1.841 3.333 -3.333 1.841 -3.333 0 C
-3.333 -1.841 -1.841 -3.333 0 -3.333 C
1.841 -3.333 3.333 -1.841 3.333 0 C
cp
f
GR
GS
[0.75 0 0 0.75 93.57291 264.71536] CT
1 0 0 RC
N
3.333 0 M
3.333 1.841 1.841 3.333 0 3.333 C
-1.841 3.333 -3.333 1.841 -3.333 0 C
-3.333 -1.841 -1.841 -3.333 0 -3.333 C
1.841 -3.333 3.333 -1.841 3.333 0 C
cp
f
GR
GS
[0.75 0 0 0.75 77.9533 214.12868] CT
1 0 0 RC
N
3.333 0 M
3.333 1.841 1.841 3.333 0 3.333 C
-1.841 3.333 -3.333 1.841 -3.333 0 C
-3.333 -1.841 -1.841 -3.333 0 -3.333 C
1.841 -3.333 3.333 -1.841 3.333 0 C
cp
f
GR
GS
[0.75 0 0 0.75 210.01172 340.17956] CT
1 0 0 RC
N
3.333 0 M
3.333 1.841 1.841 3.333 0 3.333 C
-1.841 3.333 -3.333 1.841 -3.333 0 C
-3.333 -1.841 -1.841 -3.333 0 -3.333 C
1.841 -3.333 3.333 -1.841 3.333 0 C
cp
f
GR
GS
[0.75 0 0 0.75 113.82326 298.61526] CT
1 0 0 RC
N
3.333 0 M
3.333 1.841 1.841 3.333 0 3.333 C
-1.841 3.333 -3.333 1.841 -3.333 0 C
-3.333 -1.841 -1.841 -3.333 0 -3.333 C
1.841 -3.333 3.333 -1.841 3.333 0 C
cp
f
GR
GS
[0.75 0 0 0.75 343.39545 198.98883] CT
1 0 0 RC
N
3.333 0 M
3.333 1.841 1.841 3.333 0 3.333 C
-1.841 3.333 -3.333 1.841 -3.333 0 C
-3.333 -1.841 -1.841 -3.333 0 -3.333 C
1.841 -3.333 3.333 -1.841 3.333 0 C
cp
f
GR
GS
[0.75 0 0 0.75 327.49008 268.19141] CT
1 0 0 RC
N
3.333 0 M
3.333 1.841 1.841 3.333 0 3.333 C
-1.841 3.333 -3.333 1.841 -3.333 0 C
-3.333 -1.841 -1.841 -3.333 0 -3.333 C
1.841 -3.333 3.333 -1.841 3.333 0 C
cp
f
GR
GS
[0.75 0 0 0.75 136.29654 311.85715] CT
1 0 0 RC
N
3.333 0 M
3.333 1.841 1.841 3.333 0 3.333 C
-1.841 3.333 -3.333 1.841 -3.333 0 C
-3.333 -1.841 -1.841 -3.333 0 -3.333 C
1.841 -3.333 3.333 -1.841 3.333 0 C
cp
f
GR
GS
[0.75 0 0 0.75 302.09898 302.05565] CT
1 0 0 RC
N
3.333 0 M
3.333 1.841 1.841 3.333 0 3.333 C
-1.841 3.333 -3.333 1.841 -3.333 0 C
-3.333 -1.841 -1.841 -3.333 0 -3.333 C
1.841 -3.333 3.333 -1.841 3.333 0 C
cp
f
GR
GS
[0.75 0 0 0.75 320.36044 274.82091] CT
1 0 0 RC
N
3.333 0 M
3.333 1.841 1.841 3.333 0 3.333 C
-1.841 3.333 -3.333 1.841 -3.333 0 C
-3.333 -1.841 -1.841 -3.333 0 -3.333 C
1.841 -3.333 3.333 -1.841 3.333 0 C
cp
f
GR
GS
[0.75 0 0 0.75 341.11315 263.06853] CT
1 0 0 RC
N
3.333 0 M
3.333 1.841 1.841 3.333 0 3.333 C
-1.841 3.333 -3.333 1.841 -3.333 0 C
-3.333 -1.841 -1.841 -3.333 0 -3.333 C
1.841 -3.333 3.333 -1.841 3.333 0 C
cp
f
GR
GS
[0.75 0 0 0.75 276.42565 63.31578] CT
1 0 0 RC
N
3.333 0 M
3.333 1.841 1.841 3.333 0 3.333 C
-1.841 3.333 -3.333 1.841 -3.333 0 C
-3.333 -1.841 -1.841 -3.333 0 -3.333 C
1.841 -3.333 3.333 -1.841 3.333 0 C
cp
f
GR
GS
[0.75 0 0 0.75 91.79259 135.44553] CT
1 0 0 RC
N
3.333 0 M
3.333 1.841 1.841 3.333 0 3.333 C
-1.841 3.333 -3.333 1.841 -3.333 0 C
-3.333 -1.841 -1.841 -3.333 0 -3.333 C
1.841 -3.333 3.333 -1.841 3.333 0 C
cp
f
GR
GS
[0.75 0 0 0.75 247.97976 38.6362] CT
1 0 0 RC
N
3.333 0 M
3.333 1.841 1.841 3.333 0 3.333 C
-1.841 3.333 -3.333 1.841 -3.333 0 C
-3.333 -1.841 -1.841 -3.333 0 -3.333 C
1.841 -3.333 3.333 -1.841 3.333 0 C
cp
f
GR
GS
[0.75 0 0 0.75 290.42258 66.71887] CT
1 0 0 RC
N
3.333 0 M
3.333 1.841 1.841 3.333 0 3.333 C
-1.841 3.333 -3.333 1.841 -3.333 0 C
-3.333 -1.841 -1.841 -3.333 0 -3.333 C
1.841 -3.333 3.333 -1.841 3.333 0 C
cp
f
GR
GS
[0.75 0 0 0.75 338.09718 230.77074] CT
1 0 0 RC
N
3.333 0 M
3.333 1.841 1.841 3.333 0 3.333 C
-1.841 3.333 -3.333 1.841 -3.333 0 C
-3.333 -1.841 -1.841 -3.333 0 -3.333 C
1.841 -3.333 3.333 -1.841 3.333 0 C
cp
f
GR
GS
[0.75 0 0 0.75 307.7842 71.26005] CT
1 0 0 RC
N
3.333 0 M
3.333 1.841 1.841 3.333 0 3.333 C
-1.841 3.333 -3.333 1.841 -3.333 0 C
-3.333 -1.841 -1.841 -3.333 0 -3.333 C
1.841 -3.333 3.333 -1.841 3.333 0 C
cp
f
GR
GS
[0.75 0 0 0.75 90.49147 251.73183] CT
1 0 0 RC
N
3.333 0 M
3.333 1.841 1.841 3.333 0 3.333 C
-1.841 3.333 -3.333 1.841 -3.333 0 C
-3.333 -1.841 -1.841 -3.333 0 -3.333 C
1.841 -3.333 3.333 -1.841 3.333 0 C
cp
f
GR
GS
[0.75 0 0 0.75 92.32012 250.75643] CT
1 0 0 RC
N
3.333 0 M
3.333 1.841 1.841 3.333 0 3.333 C
-1.841 3.333 -3.333 1.841 -3.333 0 C
-3.333 -1.841 -1.841 -3.333 0 -3.333 C
1.841 -3.333 3.333 -1.841 3.333 0 C
cp
f
GR
GS
[0.75 0 0 0.75 141.23009 316.13026] CT
1 0 0 RC
N
3.333 0 M
3.333 1.841 1.841 3.333 0 3.333 C
-1.841 3.333 -3.333 1.841 -3.333 0 C
-3.333 -1.841 -1.841 -3.333 0 -3.333 C
1.841 -3.333 3.333 -1.841 3.333 0 C
cp
f
GR
GS
[0.75 0 0 0.75 147.27517 324.89579] CT
1 0 0 RC
N
3.333 0 M
3.333 1.841 1.841 3.333 0 3.333 C
-1.841 3.333 -3.333 1.841 -3.333 0 C
-3.333 -1.841 -1.841 -3.333 0 -3.333 C
1.841 -3.333 3.333 -1.841 3.333 0 C
cp
f
GR
GS
[0.75 0 0 0.75 90.36939 115.21582] CT
1 0 0 RC
N
3.333 0 M
3.333 1.841 1.841 3.333 0 3.333 C
-1.841 3.333 -3.333 1.841 -3.333 0 C
-3.333 -1.841 -1.841 -3.333 0 -3.333 C
1.841 -3.333 3.333 -1.841 3.333 0 C
cp
f
GR
GS
[0.75 0 0 0.75 67.80963 189.1839] CT
1 0 0 RC
N
3.333 0 M
3.333 1.841 1.841 3.333 0 3.333 C
-1.841 3.333 -3.333 1.841 -3.333 0 C
-3.333 -1.841 -1.841 -3.333 0 -3.333 C
1.841 -3.333 3.333 -1.841 3.333 0 C
cp
f
GR
GS
[0.75 0 0 0.75 235.38906 40.54436] CT
1 0 0 RC
N
3.333 0 M
3.333 1.841 1.841 3.333 0 3.333 C
-1.841 3.333 -3.333 1.841 -3.333 0 C
-3.333 -1.841 -1.841 -3.333 0 -3.333 C
1.841 -3.333 3.333 -1.841 3.333 0 C
cp
f
GR
GS
[0.75 0 0 0.75 73.86162 222.18694] CT
1 0 0 RC
N
3.333 0 M
3.333 1.841 1.841 3.333 0 3.333 C
-1.841 3.333 -3.333 1.841 -3.333 0 C
-3.333 -1.841 -1.841 -3.333 0 -3.333 C
1.841 -3.333 3.333 -1.841 3.333 0 C
cp
f
GR
GS
[0.75 0 0 0.75 121.11411 294.942] CT
1 0 0 RC
N
3.333 0 M
3.333 1.841 1.841 3.333 0 3.333 C
-1.841 3.333 -3.333 1.841 -3.333 0 C
-3.333 -1.841 -1.841 -3.333 0 -3.333 C
1.841 -3.333 3.333 -1.841 3.333 0 C
cp
f
GR
GS
[0.75 0 0 0.75 221.5613 337.10384] CT
1 0 0 RC
N
3.333 0 M
3.333 1.841 1.841 3.333 0 3.333 C
-1.841 3.333 -3.333 1.841 -3.333 0 C
-3.333 -1.841 -1.841 -3.333 0 -3.333 C
1.841 -3.333 3.333 -1.841 3.333 0 C
cp
f
GR
GS
[0.75 0 0 0.75 328.46404 277.7018] CT
1 0 0 RC
N
3.333 0 M
3.333 1.841 1.841 3.333 0 3.333 C
-1.841 3.333 -3.333 1.841 -3.333 0 C
-3.333 -1.841 -1.841 -3.333 0 -3.333 C
1.841 -3.333 3.333 -1.841 3.333 0 C
cp
f
GR
GS
[0.75 0 0 0.75 125.56035 308.50957] CT
1 0 0 RC
N
3.333 0 M
3.333 1.841 1.841 3.333 0 3.333 C
-1.841 3.333 -3.333 1.841 -3.333 0 C
-3.333 -1.841 -1.841 -3.333 0 -3.333 C
1.841 -3.333 3.333 -1.841 3.333 0 C
cp
f
GR
GS
[0.75 0 0 0.75 100.71519 116.47304] CT
1 0 0 RC
N
3.333 0 M
3.333 1.841 1.841 3.333 0 3.333 C
-1.841 3.333 -3.333 1.841 -3.333 0 C
-3.333 -1.841 -1.841 -3.333 0 -3.333 C
1.841 -3.333 3.333 -1.841 3.333 0 C
cp
f
GR
GS
[0.75 0 0 0.75 189.17234 342.17676] CT
1 0 0 RC
N
3.333 0 M
3.333 1.841 1.841 3.333 0 3.333 C
-1.841 3.333 -3.333 1.841 -3.333 0 C
-3.333 -1.841 -1.841 -3.333 0 -3.333 C
1.841 -3.333 3.333 -1.841 3.333 0 C
cp
f
GR
GS
[0.75 0 0 0.75 226.33221 40.47003] CT
1 0 0 RC
N
3.333 0 M
3.333 1.841 1.841 3.333 0 3.333 C
-1.841 3.333 -3.333 1.841 -3.333 0 C
-3.333 -1.841 -1.841 -3.333 0 -3.333 C
1.841 -3.333 3.333 -1.841 3.333 0 C
cp
f
GR
GS
[0.75 0 0 0.75 353.81433 152.15074] CT
1 0 0 RC
N
3.333 0 M
3.333 1.841 1.841 3.333 0 3.333 C
-1.841 3.333 -3.333 1.841 -3.333 0 C
-3.333 -1.841 -1.841 -3.333 0 -3.333 C
1.841 -3.333 3.333 -1.841 3.333 0 C
cp
f
GR
GS
[0.75 0 0 0.75 331.6507 109.42604] CT
1 0 0 RC
N
3.333 0 M
3.333 1.841 1.841 3.333 0 3.333 C
-1.841 3.333 -3.333 1.841 -3.333 0 C
-3.333 -1.841 -1.841 -3.333 0 -3.333 C
1.841 -3.333 3.333 -1.841 3.333 0 C
cp
f
GR
GS
[0.75 0 0 0.75 353.90282 195.91048] CT
1 0 0 RC
N
3.333 0 M
3.333 1.841 1.841 3.333 0 3.333 C
-1.841 3.333 -3.333 1.841 -3.333 0 C
-3.333 -1.841 -1.841 -3.333 0 -3.333 C
1.841 -3.333 3.333 -1.841 3.333 0 C
cp
f
GR
GS
[0.75 0 0 0.75 344.50136 185.15386] CT
1 0 0 RC
N
3.333 0 M
3.333 1.841 1.841 3.333 0 3.333 C
-1.841 3.333 -3.333 1.841 -3.333 0 C
-3.333 -1.841 -1.841 -3.333 0 -3.333 C
1.841 -3.333 3.333 -1.841 3.333 0 C
cp
f
GR
GS
[0.75 0 0 0.75 137.38363 60.73764] CT
1 0 0 RC
N
3.333 0 M
3.333 1.841 1.841 3.333 0 3.333 C
-1.841 3.333 -3.333 1.841 -3.333 0 C
-3.333 -1.841 -1.841 -3.333 0 -3.333 C
1.841 -3.333 3.333 -1.841 3.333 0 C
cp
f
GR
GS
[0.75 0 0 0.75 80.63537 173.72528] CT
1 0 0 RC
N
3.333 0 M
3.333 1.841 1.841 3.333 0 3.333 C
-1.841 3.333 -3.333 1.841 -3.333 0 C
-3.333 -1.841 -1.841 -3.333 0 -3.333 C
1.841 -3.333 3.333 -1.841 3.333 0 C
cp
f
GR
GS
[0.75 0 0 0.75 73.37693 197.40346] CT
1 0 0 RC
N
3.333 0 M
3.333 1.841 1.841 3.333 0 3.333 C
-1.841 3.333 -3.333 1.841 -3.333 0 C
-3.333 -1.841 -1.841 -3.333 0 -3.333 C
1.841 -3.333 3.333 -1.841 3.333 0 C
cp
f
GR
GS
[0.75 0 0 0.75 86.68098 145.69841] CT
1 0 0 RC
N
3.333 0 M
3.333 1.841 1.841 3.333 0 3.333 C
-1.841 3.333 -3.333 1.841 -3.333 0 C
-3.333 -1.841 -1.841 -3.333 0 -3.333 C
1.841 -3.333 3.333 -1.841 3.333 0 C
cp
f
GR
GS
[0.75 0 0 0.75 316.56059 287.19808] CT
1 0 0 RC
N
3.333 0 M
3.333 1.841 1.841 3.333 0 3.333 C
-1.841 3.333 -3.333 1.841 -3.333 0 C
-3.333 -1.841 -1.841 -3.333 0 -3.333 C
1.841 -3.333 3.333 -1.841 3.333 0 C
cp
f
GR
GS
[0.75 0 0 0.75 240.30093 48.27316] CT
1 0 0 RC
N
3.333 0 M
3.333 1.841 1.841 3.333 0 3.333 C
-1.841 3.333 -3.333 1.841 -3.333 0 C
-3.333 -1.841 -1.841 -3.333 0 -3.333 C
1.841 -3.333 3.333 -1.841 3.333 0 C
cp
f
GR
GS
[0.75 0 0 0.75 76.59572 167.89383] CT
1 0 0 RC
N
3.333 0 M
3.333 1.841 1.841 3.333 0 3.333 C
-1.841 3.333 -3.333 1.841 -3.333 0 C
-3.333 -1.841 -1.841 -3.333 0 -3.333 C
1.841 -3.333 3.333 -1.841 3.333 0 C
cp
f
GR
GS
[0.75 0 0 0.75 223.67194 42.27984] CT
1 0 0 RC
N
3.333 0 M
3.333 1.841 1.841 3.333 0 3.333 C
-1.841 3.333 -3.333 1.841 -3.333 0 C
-3.333 -1.841 -1.841 -3.333 0 -3.333 C
1.841 -3.333 3.333 -1.841 3.333 0 C
cp
f
GR
GS
[0.75 0 0 0.75 234.27402 340.02994] CT
1 0 0 RC
N
3.333 0 M
3.333 1.841 1.841 3.333 0 3.333 C
-1.841 3.333 -3.333 1.841 -3.333 0 C
-3.333 -1.841 -1.841 -3.333 0 -3.333 C
1.841 -3.333 3.333 -1.841 3.333 0 C
cp
f
GR
GS
[0.75 0 0 0.75 346.81677 193.60029] CT
1 0 0 RC
N
3.333 0 M
3.333 1.841 1.841 3.333 0 3.333 C
-1.841 3.333 -3.333 1.841 -3.333 0 C
-3.333 -1.841 -1.841 -3.333 0 -3.333 C
1.841 -3.333 3.333 -1.841 3.333 0 C
cp
f
GR
GS
[0.75 0 0 0.75 122.17377 64.92135] CT
1 0 0 RC
N
3.333 0 M
3.333 1.841 1.841 3.333 0 3.333 C
-1.841 3.333 -3.333 1.841 -3.333 0 C
-3.333 -1.841 -1.841 -3.333 0 -3.333 C
1.841 -3.333 3.333 -1.841 3.333 0 C
cp
f
GR
GS
[0.75 0 0 0.75 148.59964 317.86429] CT
1 0 0 RC
N
3.333 0 M
3.333 1.841 1.841 3.333 0 3.333 C
-1.841 3.333 -3.333 1.841 -3.333 0 C
-3.333 -1.841 -1.841 -3.333 0 -3.333 C
1.841 -3.333 3.333 -1.841 3.333 0 C
cp
f
GR
GS
[0.75 0 0 0.75 272.36549 45.66184] CT
1 0 0 RC
N
3.333 0 M
3.333 1.841 1.841 3.333 0 3.333 C
-1.841 3.333 -3.333 1.841 -3.333 0 C
-3.333 -1.841 -1.841 -3.333 0 -3.333 C
1.841 -3.333 3.333 -1.841 3.333 0 C
cp
f
GR
GS
[0.75 0 0 0.75 295.3615 57.72409] CT
1 0 0 RC
N
3.333 0 M
3.333 1.841 1.841 3.333 0 3.333 C
-1.841 3.333 -3.333 1.841 -3.333 0 C
-3.333 -1.841 -1.841 -3.333 0 -3.333 C
1.841 -3.333 3.333 -1.841 3.333 0 C
cp
f
GR
GS
[0.75 0 0 0.75 82.19723 222.70843] CT
1 0 0 RC
N
3.333 0 M
3.333 1.841 1.841 3.333 0 3.333 C
-1.841 3.333 -3.333 1.841 -3.333 0 C
-3.333 -1.841 -1.841 -3.333 0 -3.333 C
1.841 -3.333 3.333 -1.841 3.333 0 C
cp
f
GR
GS
[0.75 0 0 0.75 76.89206 166.98856] CT
1 0 0 RC
N
3.333 0 M
3.333 1.841 1.841 3.333 0 3.333 C
-1.841 3.333 -3.333 1.841 -3.333 0 C
-3.333 -1.841 -1.841 -3.333 0 -3.333 C
1.841 -3.333 3.333 -1.841 3.333 0 C
cp
f
GR
GS
[0.75 0 0 0.75 123.49243 79.45372] CT
1 0 0 RC
N
3.333 0 M
3.333 1.841 1.841 3.333 0 3.333 C
-1.841 3.333 -3.333 1.841 -3.333 0 C
-3.333 -1.841 -1.841 -3.333 0 -3.333 C
1.841 -3.333 3.333 -1.841 3.333 0 C
cp
f
GR
GS
[0.75 0 0 0.75 161.72205 334.39617] CT
1 0 0 RC
N
3.333 0 M
3.333 1.841 1.841 3.333 0 3.333 C
-1.841 3.333 -3.333 1.841 -3.333 0 C
-3.333 -1.841 -1.841 -3.333 0 -3.333 C
1.841 -3.333 3.333 -1.841 3.333 0 C
cp
f
GR
GS
[0.75 0 0 0.75 327.31274 98.01242] CT
1 0 0 RC
N
3.333 0 M
3.333 1.841 1.841 3.333 0 3.333 C
-1.841 3.333 -3.333 1.841 -3.333 0 C
-3.333 -1.841 -1.841 -3.333 0 -3.333 C
1.841 -3.333 3.333 -1.841 3.333 0 C
cp
f
GR
GS
[0.75 0 0 0.75 167.67086 334.18498] CT
1 0 0 RC
N
3.333 0 M
3.333 1.841 1.841 3.333 0 3.333 C
-1.841 3.333 -3.333 1.841 -3.333 0 C
-3.333 -1.841 -1.841 -3.333 0 -3.333 C
1.841 -3.333 3.333 -1.841 3.333 0 C
cp
f
GR
GS
[0.75 0 0 0.75 80.88693 215.8644] CT
1 0 0 RC
N
3.333 0 M
3.333 1.841 1.841 3.333 0 3.333 C
-1.841 3.333 -3.333 1.841 -3.333 0 C
-3.333 -1.841 -1.841 -3.333 0 -3.333 C
1.841 -3.333 3.333 -1.841 3.333 0 C
cp
f
GR
GS
[0.75 0 0 0.75 79.81586 155.85989] CT
1 0 0 RC
N
3.333 0 M
3.333 1.841 1.841 3.333 0 3.333 C
-1.841 3.333 -3.333 1.841 -3.333 0 C
-3.333 -1.841 -1.841 -3.333 0 -3.333 C
1.841 -3.333 3.333 -1.841 3.333 0 C
cp
f
GR
GS
[0.75 0 0 0.75 270.64925 329.59142] CT
1 0 0 RC
N
3.333 0 M
3.333 1.841 1.841 3.333 0 3.333 C
-1.841 3.333 -3.333 1.841 -3.333 0 C
-3.333 -1.841 -1.841 -3.333 0 -3.333 C
1.841 -3.333 3.333 -1.841 3.333 0 C
cp
f
GR
GS
[0.75 0 0 0.75 69.54757 214.91777] CT
1 0 0 RC
N
3.333 0 M
3.333 1.841 1.841 3.333 0 3.333 C
-1.841 3.333 -3.333 1.841 -3.333 0 C
-3.333 -1.841 -1.841 -3.333 0 -3.333 C
1.841 -3.333 3.333 -1.841 3.333 0 C
cp
f
GR
GS
[0.75 0 0 0.75 136.97817 72.03356] CT
1 0 0 RC
N
3.333 0 M
3.333 1.841 1.841 3.333 0 3.333 C
-1.841 3.333 -3.333 1.841 -3.333 0 C
-3.333 -1.841 -1.841 -3.333 0 -3.333 C
1.841 -3.333 3.333 -1.841 3.333 0 C
cp
f
GR
GS
[0.75 0 0 0.75 68.13361 196.77259] CT
1 0 0 RC
N
3.333 0 M
3.333 1.841 1.841 3.333 0 3.333 C
-1.841 3.333 -3.333 1.841 -3.333 0 C
-3.333 -1.841 -1.841 -3.333 0 -3.333 C
1.841 -3.333 3.333 -1.841 3.333 0 C
cp
f
GR
GS
[0.75 0 0 0.75 89.96375 124.36891] CT
1 0 0 RC
N
3.333 0 M
3.333 1.841 1.841 3.333 0 3.333 C
-1.841 3.333 -3.333 1.841 -3.333 0 C
-3.333 -1.841 -1.841 -3.333 0 -3.333 C
1.841 -3.333 3.333 -1.841 3.333 0 C
cp
f
GR
GS
[0.75 0 0 0.75 293.39095 314.75484] CT
1 0 0 RC
N
3.333 0 M
3.333 1.841 1.841 3.333 0 3.333 C
-1.841 3.333 -3.333 1.841 -3.333 0 C
-3.333 -1.841 -1.841 -3.333 0 -3.333 C
1.841 -3.333 3.333 -1.841 3.333 0 C
cp
f
GR
GS
[0.75 0 0 0.75 263.93816 49.23408] CT
1 0 0 RC
N
3.333 0 M
3.333 1.841 1.841 3.333 0 3.333 C
-1.841 3.333 -3.333 1.841 -3.333 0 C
-3.333 -1.841 -1.841 -3.333 0 -3.333 C
1.841 -3.333 3.333 -1.841 3.333 0 C
cp
f
GR
GS
[0.75 0 0 0.75 167.21254 48.59803] CT
1 0 0 RC
N
3.333 0 M
3.333 1.841 1.841 3.333 0 3.333 C
-1.841 3.333 -3.333 1.841 -3.333 0 C
-3.333 -1.841 -1.841 -3.333 0 -3.333 C
1.841 -3.333 3.333 -1.841 3.333 0 C
cp
f
GR
GS
[0.75 0 0 0.75 287.28836 314.3155] CT
1 0 0 RC
N
3.333 0 M
3.333 1.841 1.841 3.333 0 3.333 C
-1.841 3.333 -3.333 1.841 -3.333 0 C
-3.333 -1.841 -1.841 -3.333 0 -3.333 C
1.841 -3.333 3.333 -1.841 3.333 0 C
cp
f
GR
GS
[0.75 0 0 0.75 87.87772 147.75864] CT
1 0 0 RC
N
3.333 0 M
3.333 1.841 1.841 3.333 0 3.333 C
-1.841 3.333 -3.333 1.841 -3.333 0 C
-3.333 -1.841 -1.841 -3.333 0 -3.333 C
1.841 -3.333 3.333 -1.841 3.333 0 C
cp
f
GR
GS
[0.75 0 0 0.75 337.68947 245.64289] CT
1 0 0 RC
N
3.333 0 M
3.333 1.841 1.841 3.333 0 3.333 C
-1.841 3.333 -3.333 1.841 -3.333 0 C
-3.333 -1.841 -1.841 -3.333 0 -3.333 C
1.841 -3.333 3.333 -1.841 3.333 0 C
cp
f
GR
GS
[0.75 0 0 0.75 83.03635 168.63841] CT
1 0 0 RC
N
3.333 0 M
3.333 1.841 1.841 3.333 0 3.333 C
-1.841 3.333 -3.333 1.841 -3.333 0 C
-3.333 -1.841 -1.841 -3.333 0 -3.333 C
1.841 -3.333 3.333 -1.841 3.333 0 C
cp
f
GR
GS
[0.75 0 0 0.75 269.49463 48.38981] CT
1 0 0 RC
N
3.333 0 M
3.333 1.841 1.841 3.333 0 3.333 C
-1.841 3.333 -3.333 1.841 -3.333 0 C
-3.333 -1.841 -1.841 -3.333 0 -3.333 C
1.841 -3.333 3.333 -1.841 3.333 0 C
cp
f
GR
GS
[0.75 0 0 0.75 260.85745 49.90302] CT
1 0 0 RC
N
3.333 0 M
3.333 1.841 1.841 3.333 0 3.333 C
-1.841 3.333 -3.333 1.841 -3.333 0 C
-3.333 -1.841 -1.841 -3.333 0 -3.333 C
1.841 -3.333 3.333 -1.841 3.333 0 C
cp
f
GR
GS
[0.75 0 0 0.75 333.21957 267.94827] CT
1 0 0 RC
N
3.333 0 M
3.333 1.841 1.841 3.333 0 3.333 C
-1.841 3.333 -3.333 1.841 -3.333 0 C
-3.333 -1.841 -1.841 -3.333 0 -3.333 C
1.841 -3.333 3.333 -1.841 3.333 0 C
cp
f
GR
GS
[0.75 0 0 0.75 340.46819 127.99861] CT
1 0 0 RC
N
3.333 0 M
3.333 1.841 1.841 3.333 0 3.333 C
-1.841 3.333 -3.333 1.841 -3.333 0 C
-3.333 -1.841 -1.841 -3.333 0 -3.333 C
1.841 -3.333 3.333 -1.841 3.333 0 C
cp
f
GR
GS
[0.75 0 0 0.75 180.94352 33.9788] CT
1 0 0 RC
N
3.333 0 M
3.333 1.841 1.841 3.333 0 3.333 C
-1.841 3.333 -3.333 1.841 -3.333 0 C
-3.333 -1.841 -1.841 -3.333 0 -3.333 C
1.841 -3.333 3.333 -1.841 3.333 0 C
cp
f
GR
GS
[0.75 0 0 0.75 114.84988 293.73476] CT
1 0 0 RC
N
3.333 0 M
3.333 1.841 1.841 3.333 0 3.333 C
-1.841 3.333 -3.333 1.841 -3.333 0 C
-3.333 -1.841 -1.841 -3.333 0 -3.333 C
1.841 -3.333 3.333 -1.841 3.333 0 C
cp
f
GR
GS
[0.75 0 0 0.75 122.40388 82.07549] CT
1 0 0 RC
N
3.333 0 M
3.333 1.841 1.841 3.333 0 3.333 C
-1.841 3.333 -3.333 1.841 -3.333 0 C
-3.333 -1.841 -1.841 -3.333 0 -3.333 C
1.841 -3.333 3.333 -1.841 3.333 0 C
cp
f
GR
GS
[0.75 0 0 0.75 261.85874 337.55779] CT
1 0 0 RC
N
3.333 0 M
3.333 1.841 1.841 3.333 0 3.333 C
-1.841 3.333 -3.333 1.841 -3.333 0 C
-3.333 -1.841 -1.841 -3.333 0 -3.333 C
1.841 -3.333 3.333 -1.841 3.333 0 C
cp
f
GR
GS
[0.75 0 0 0.75 269.83651 326.70851] CT
1 0 0 RC
N
3.333 0 M
3.333 1.841 1.841 3.333 0 3.333 C
-1.841 3.333 -3.333 1.841 -3.333 0 C
-3.333 -1.841 -1.841 -3.333 0 -3.333 C
1.841 -3.333 3.333 -1.841 3.333 0 C
cp
f
GR
GS
[0.75 0 0 0.75 79.98427 235.40917] CT
1 0 0 RC
N
3.333 0 M
3.333 1.841 1.841 3.333 0 3.333 C
-1.841 3.333 -3.333 1.841 -3.333 0 C
-3.333 -1.841 -1.841 -3.333 0 -3.333 C
1.841 -3.333 3.333 -1.841 3.333 0 C
cp
f
GR
GS
[0.75 0 0 0.75 231.01554 331.81493] CT
1 0 0 RC
N
3.333 0 M
3.333 1.841 1.841 3.333 0 3.333 C
-1.841 3.333 -3.333 1.841 -3.333 0 C
-3.333 -1.841 -1.841 -3.333 0 -3.333 C
1.841 -3.333 3.333 -1.841 3.333 0 C
cp
f
GR
GS
[0.75 0 0 0.75 331.80906 124.48522] CT
1 0 0 RC
N
3.333 0 M
3.333 1.841 1.841 3.333 0 3.333 C
-1.841 3.333 -3.333 1.841 -3.333 0 C
-3.333 -1.841 -1.841 -3.333 0 -3.333 C
1.841 -3.333 3.333 -1.841 3.333 0 C
cp
f
GR
GS
[0.75 0 0 0.75 356.69037 171.7884] CT
1 0 0 RC
N
3.333 0 M
3.333 1.841 1.841 3.333 0 3.333 C
-1.841 3.333 -3.333 1.841 -3.333 0 C
-3.333 -1.841 -1.841 -3.333 0 -3.333 C
1.841 -3.333 3.333 -1.841 3.333 0 C
cp
f
GR
GS
[0.75 0 0 0.75 223.06563 334.50089] CT
1 0 0 RC
N
3.333 0 M
3.333 1.841 1.841 3.333 0 3.333 C
-1.841 3.333 -3.333 1.841 -3.333 0 C
-3.333 -1.841 -1.841 -3.333 0 -3.333 C
1.841 -3.333 3.333 -1.841 3.333 0 C
cp
f
GR
GS
[0.75 0 0 0.75 0 0.25] CT
1 LJ
N
150.5 371.5 M
149.736 369.149 L
147.736 367.696 L
145.264 367.696 L
143.264 369.149 L
142.5 371.5 L
143.264 373.851 L
145.264 375.304 L
147.736 375.304 L
149.736 373.851 L
cp
S
GR
GS
[0.75 0 0 0.75 0 0.25] CT
1 LJ
N
439.5 360.5 M
438.736 358.149 L
436.736 356.696 L
434.264 356.696 L
432.264 358.149 L
431.5 360.5 L
432.264 362.851 L
434.264 364.304 L
436.736 364.304 L
438.736 362.851 L
cp
S
GR
GS
[0.75 0 0 0.75 0 0.25] CT
1 LJ
N
134.5 150.5 M
133.736 148.149 L
131.736 146.696 L
129.264 146.696 L
127.264 148.149 L
126.5 150.5 L
127.264 152.851 L
129.264 154.304 L
131.736 154.304 L
133.736 152.851 L
cp
S
GR
GS
[0.75 0 0 0.75 0 0.25] CT
1 LJ
N
122.5 323.5 M
121.736 321.149 L
119.736 319.696 L
117.264 319.696 L
115.264 321.149 L
114.5 323.5 L
115.264 325.851 L
117.264 327.304 L
119.736 327.304 L
121.736 325.851 L
cp
S
GR
GS
[0.75 0 0 0.75 0 0.25] CT
1 LJ
N
423.5 400.5 M
422.736 398.149 L
420.736 396.696 L
418.264 396.696 L
416.264 398.149 L
415.5 400.5 L
416.264 402.851 L
418.264 404.304 L
420.736 404.304 L
422.736 402.851 L
cp
S
GR
GS
[0.75 0 0 0.75 0 0.25] CT
1 LJ
N
155.5 385.5 M
154.736 383.149 L
152.736 381.696 L
150.264 381.696 L
148.264 383.149 L
147.5 385.5 L
148.264 387.851 L
150.264 389.304 L
152.736 389.304 L
154.736 387.851 L
cp
S
GR
GS
[0.75 0 0 0.75 0 0.25] CT
1 LJ
N
120.5 190.5 M
119.736 188.149 L
117.736 186.696 L
115.264 186.696 L
113.264 188.149 L
112.5 190.5 L
113.264 192.851 L
115.264 194.304 L
117.736 194.304 L
119.736 192.851 L
cp
S
GR
GS
[0.75 0 0 0.75 0 0.25] CT
1 LJ
N
105.5 277.5 M
104.736 275.149 L
102.736 273.696 L
100.264 273.696 L
98.264 275.149 L
97.5 277.5 L
98.264 279.851 L
100.264 281.304 L
102.736 281.304 L
104.736 279.851 L
cp
S
GR
GS
[0.75 0 0 0.75 0 0.25] CT
1 LJ
N
146.5 133.5 M
145.736 131.149 L
143.736 129.696 L
141.264 129.696 L
139.264 131.149 L
138.5 133.5 L
139.264 135.851 L
141.264 137.304 L
143.736 137.304 L
145.736 135.851 L
cp
S
GR
GS
[0.75 0 0 0.75 0 0.25] CT
1 LJ
N
137.5 357.5 M
136.736 355.149 L
134.736 353.696 L
132.264 353.696 L
130.264 355.149 L
129.5 357.5 L
130.264 359.851 L
132.264 361.304 L
134.736 361.304 L
136.736 359.851 L
cp
S
GR
GS
[0.75 0 0 0.75 0 0.25] CT
1 LJ
N
111.5 328.5 M
110.736 326.149 L
108.736 324.696 L
106.264 324.696 L
104.264 326.149 L
103.5 328.5 L
104.264 330.851 L
106.264 332.304 L
108.736 332.304 L
110.736 330.851 L
cp
S
GR
GS
[0.75 0 0 0.75 0 0.25] CT
1 LJ
N
456.5 301.5 M
455.736 299.149 L
453.736 297.696 L
451.264 297.696 L
449.264 299.149 L
448.5 301.5 L
449.264 303.851 L
451.264 305.304 L
453.736 305.304 L
455.736 303.851 L
cp
S
GR
GS
[0.75 0 0 0.75 0 0.25] CT
1 LJ
N
102.5 275.5 M
101.736 273.149 L
99.736 271.696 L
97.264 271.696 L
95.264 273.149 L
94.5 275.5 L
95.264 277.851 L
97.264 279.304 L
99.736 279.304 L
101.736 277.851 L
cp
S
GR
GS
[0.75 0 0 0.75 0 0.25] CT
1 LJ
N
151.5 382.5 M
150.736 380.149 L
148.736 378.696 L
146.264 378.696 L
144.264 380.149 L
143.5 382.5 L
144.264 384.851 L
146.264 386.304 L
148.736 386.304 L
150.736 384.851 L
cp
S
GR
GS
[0.75 0 0 0.75 0 0.25] CT
1 LJ
N
146.5 366.5 M
145.736 364.149 L
143.736 362.696 L
141.264 362.696 L
139.264 364.149 L
138.5 366.5 L
139.264 368.851 L
141.264 370.304 L
143.736 370.304 L
145.736 368.851 L
cp
S
GR
GS
[0.75 0 0 0.75 0 0.25] CT
1 LJ
N
131.5 161.5 M
130.736 159.149 L
128.736 157.696 L
126.264 157.696 L
124.264 159.149 L
123.5 161.5 L
124.264 163.851 L
126.264 165.304 L
128.736 165.304 L
130.736 163.851 L
cp
S
GR
GS
[0.75 0 0 0.75 0 0.25] CT
1 LJ
N
145.5 110.5 M
144.736 108.149 L
142.736 106.696 L
140.264 106.696 L
138.264 108.149 L
137.5 110.5 L
138.264 112.851 L
140.264 114.304 L
142.736 114.304 L
144.736 112.851 L
cp
S
GR
GS
[0.75 0 0 0.75 0 0.25] CT
1 LJ
N
462.5 228.5 M
461.736 226.149 L
459.736 224.696 L
457.264 224.696 L
455.264 226.149 L
454.5 228.5 L
455.264 230.851 L
457.264 232.304 L
459.736 232.304 L
461.736 230.851 L
cp
S
GR
GS
[0.75 0 0 0.75 0 0.25] CT
1 LJ
N
449.5 363.5 M
448.736 361.149 L
446.736 359.696 L
444.264 359.696 L
442.264 361.149 L
441.5 363.5 L
442.264 365.851 L
444.264 367.304 L
446.736 367.304 L
448.736 365.851 L
cp
S
GR
GS
[0.75 0 0 0.75 0 0.25] CT
1 LJ
N
102.5 309.5 M
101.736 307.149 L
99.736 305.696 L
97.264 305.696 L
95.264 307.149 L
94.5 309.5 L
95.264 311.851 L
97.264 313.304 L
99.736 313.304 L
101.736 311.851 L
cp
S
GR
GS
[0.75 0 0 0.75 0 0.25] CT
1 LJ
N
451.5 359.5 M
450.736 357.149 L
448.736 355.696 L
446.264 355.696 L
444.264 357.149 L
443.5 359.5 L
444.264 361.851 L
446.264 363.304 L
448.736 363.304 L
450.736 361.851 L
cp
S
GR
GS
[0.75 0 0 0.75 0 0.25] CT
1 LJ
N
109.5 284.5 M
108.736 282.149 L
106.736 280.696 L
104.264 280.696 L
102.264 282.149 L
101.5 284.5 L
102.264 286.851 L
104.264 288.304 L
106.736 288.304 L
108.736 286.851 L
cp
S
GR
GS
[0.75 0 0 0.75 0 0.25] CT
1 LJ
N
111.5 166.5 M
110.736 164.149 L
108.736 162.696 L
106.264 162.696 L
104.264 164.149 L
103.5 166.5 L
104.264 168.851 L
106.264 170.304 L
108.736 170.304 L
110.736 168.851 L
cp
S
GR
GS
[0.75 0 0 0.75 0 0.25] CT
1 LJ
N
128.5 352.5 M
127.736 350.149 L
125.736 348.696 L
123.264 348.696 L
121.264 350.149 L
120.5 352.5 L
121.264 354.851 L
123.264 356.304 L
125.736 356.304 L
127.736 354.851 L
cp
S
GR
GS
[0.75 0 0 0.75 0 0.25] CT
1 LJ
N
107.5 285.5 M
106.736 283.149 L
104.736 281.696 L
102.264 281.696 L
100.264 283.149 L
99.5 285.5 L
100.264 287.851 L
102.264 289.304 L
104.736 289.304 L
106.736 287.851 L
cp
S
GR
GS
[0.75 0 0 0.75 0 0.25] CT
1 LJ
N
155.5 397.5 M
154.736 395.149 L
152.736 393.696 L
150.264 393.696 L
148.264 395.149 L
147.5 397.5 L
148.264 399.851 L
150.264 401.304 L
152.736 401.304 L
154.736 399.851 L
cp
S
GR
GS
[0.75 0 0 0.75 0 0.25] CT
1 LJ
N
461.5 264.5 M
460.736 262.149 L
458.736 260.696 L
456.264 260.696 L
454.264 262.149 L
453.5 264.5 L
454.264 266.851 L
456.264 268.304 L
458.736 268.304 L
460.736 266.851 L
cp
S
GR
GS
[0.75 0 0 0.75 0 0.25] CT
1 LJ
N
440.5 357.5 M
439.736 355.149 L
437.736 353.696 L
435.264 353.696 L
433.264 355.149 L
432.5 357.5 L
433.264 359.851 L
435.264 361.304 L
437.736 361.304 L
439.736 359.851 L
cp
S
GR
GS
[0.75 0 0 0.75 0 0.25] CT
1 LJ
N
185.5 415.5 M
184.736 413.149 L
182.736 411.696 L
180.264 411.696 L
178.264 413.149 L
177.5 415.5 L
178.264 417.851 L
180.264 419.304 L
182.736 419.304 L
184.736 417.851 L
cp
S
GR
GS
[0.75 0 0 0.75 0 0.25] CT
1 LJ
N
406.5 402.5 M
405.736 400.149 L
403.736 398.696 L
401.264 398.696 L
399.264 400.149 L
398.5 402.5 L
399.264 404.851 L
401.264 406.304 L
403.736 406.304 L
405.736 404.851 L
cp
S
GR
GS
[0.75 0 0 0.75 0 0.25] CT
1 LJ
N
431.5 366.5 M
430.736 364.149 L
428.736 362.696 L
426.264 362.696 L
424.264 364.149 L
423.5 366.5 L
424.264 368.851 L
426.264 370.304 L
428.736 370.304 L
430.736 368.851 L
cp
S
GR
GS
[0.75 0 0 0.75 0 0.25] CT
1 LJ
N
458.5 350.5 M
457.736 348.149 L
455.736 346.696 L
453.264 346.696 L
451.264 348.149 L
450.5 350.5 L
451.264 352.851 L
453.264 354.304 L
455.736 354.304 L
457.736 352.851 L
cp
S
GR
GS
[0.75 0 0 0.75 0 0.25] CT
1 LJ
N
126.5 180.5 M
125.736 178.149 L
123.736 176.696 L
121.264 176.696 L
119.264 178.149 L
118.5 180.5 L
119.264 182.851 L
121.264 184.304 L
123.736 184.304 L
125.736 182.851 L
cp
S
GR
GS
[0.75 0 0 0.75 0 0.25] CT
1 LJ
N
454.5 307.5 M
453.736 305.149 L
451.736 303.696 L
449.264 303.696 L
447.264 305.149 L
446.5 307.5 L
447.264 309.851 L
449.264 311.304 L
451.736 311.304 L
453.736 309.851 L
cp
S
GR
GS
[0.75 0 0 0.75 0 0.25] CT
1 LJ
N
124.5 335.5 M
123.736 333.149 L
121.736 331.696 L
119.264 331.696 L
117.264 333.149 L
116.5 335.5 L
117.264 337.851 L
119.264 339.304 L
121.736 339.304 L
123.736 337.851 L
cp
S
GR
GS
[0.75 0 0 0.75 0 0.25] CT
1 LJ
N
127.5 334.5 M
126.736 332.149 L
124.736 330.696 L
122.264 330.696 L
120.264 332.149 L
119.5 334.5 L
120.264 336.851 L
122.264 338.304 L
124.736 338.304 L
126.736 336.851 L
cp
S
GR
GS
[0.75 0 0 0.75 0 0.25] CT
1 LJ
N
124.5 153.5 M
123.736 151.149 L
121.736 149.696 L
119.264 149.696 L
117.264 151.149 L
116.5 153.5 L
117.264 155.851 L
119.264 157.304 L
121.736 157.304 L
123.736 155.851 L
cp
S
GR
GS
[0.75 0 0 0.75 0 0.25] CT
1 LJ
N
102.5 295.5 M
101.736 293.149 L
99.736 291.696 L
97.264 291.696 L
95.264 293.149 L
94.5 295.5 L
95.264 297.851 L
97.264 299.304 L
99.736 299.304 L
101.736 297.851 L
cp
S
GR
GS
[0.75 0 0 0.75 0 0.25] CT
1 LJ
N
165.5 392.5 M
164.736 390.149 L
162.736 388.696 L
160.264 388.696 L
158.264 390.149 L
157.5 392.5 L
158.264 394.851 L
160.264 396.304 L
162.736 396.304 L
164.736 394.851 L
cp
S
GR
GS
[0.75 0 0 0.75 0 0.25] CT
1 LJ
N
441.5 369.5 M
440.736 367.149 L
438.736 365.696 L
436.264 365.696 L
434.264 367.149 L
433.5 369.5 L
434.264 371.851 L
436.264 373.304 L
438.736 373.304 L
440.736 371.851 L
cp
S
GR
GS
[0.75 0 0 0.75 0 0.25] CT
1 LJ
N
171.5 411.5 M
170.736 409.149 L
168.736 407.696 L
166.264 407.696 L
164.264 409.149 L
163.5 411.5 L
164.264 413.851 L
166.264 415.304 L
168.736 415.304 L
170.736 413.851 L
cp
S
GR
GS
[0.75 0 0 0.75 0 0.25] CT
1 LJ
N
138.5 154.5 M
137.736 152.149 L
135.736 150.696 L
133.264 150.696 L
131.264 152.149 L
130.5 154.5 L
131.264 156.851 L
133.264 158.304 L
135.736 158.304 L
137.736 156.851 L
cp
S
GR
GS
[0.75 0 0 0.75 0 0.25] CT
1 LJ
N
475.5 260.5 M
474.736 258.149 L
472.736 256.696 L
470.264 256.696 L
468.264 258.149 L
467.5 260.5 L
468.264 262.851 L
470.264 264.304 L
472.736 264.304 L
474.736 262.851 L
cp
S
GR
GS
[0.75 0 0 0.75 0 0.25] CT
1 LJ
N
463.5 246.5 M
462.736 244.149 L
460.736 242.696 L
458.264 242.696 L
456.264 244.149 L
455.5 246.5 L
456.264 248.851 L
458.264 250.304 L
460.736 250.304 L
462.736 248.851 L
cp
S
GR
GS
[0.75 0 0 0.75 0 0.25] CT
1 LJ
N
119.5 193.5 M
118.736 191.149 L
116.736 189.696 L
114.264 189.696 L
112.264 191.149 L
111.5 193.5 L
112.264 195.851 L
114.264 197.304 L
116.736 197.304 L
118.736 195.851 L
cp
S
GR
GS
[0.75 0 0 0.75 0 0.25] CT
1 LJ
N
426.5 382.5 M
425.736 380.149 L
423.736 378.696 L
421.264 378.696 L
419.264 380.149 L
418.5 382.5 L
419.264 384.851 L
421.264 386.304 L
423.736 386.304 L
425.736 384.851 L
cp
S
GR
GS
[0.75 0 0 0.75 0 0.25] CT
1 LJ
N
466.5 257.5 M
465.736 255.149 L
463.736 253.696 L
461.264 253.696 L
459.264 255.149 L
458.5 257.5 L
459.264 259.851 L
461.264 261.304 L
463.736 261.304 L
465.736 259.851 L
cp
S
GR
GS
[0.75 0 0 0.75 0 0.25] CT
1 LJ
N
113.5 296.5 M
112.736 294.149 L
110.736 292.696 L
108.264 292.696 L
106.264 294.149 L
105.5 296.5 L
106.264 298.851 L
108.264 300.304 L
110.736 300.304 L
112.736 298.851 L
cp
S
GR
GS
[0.75 0 0 0.75 0 0.25] CT
1 LJ
N
111.5 287.5 M
110.736 285.149 L
108.736 283.696 L
106.264 283.696 L
104.264 285.149 L
103.5 287.5 L
104.264 289.851 L
106.264 291.304 L
108.736 291.304 L
110.736 289.851 L
cp
S
GR
GS
[0.75 0 0 0.75 0 0.25] CT
1 LJ
N
364.5 439.5 M
363.736 437.149 L
361.736 435.696 L
359.264 435.696 L
357.264 437.149 L
356.5 439.5 L
357.264 441.851 L
359.264 443.304 L
361.736 443.304 L
363.736 441.851 L
cp
S
GR
GS
[0.75 0 0 0.75 0 0.25] CT
1 LJ
N
96.5 286.5 M
95.736 284.149 L
93.736 282.696 L
91.264 282.696 L
89.264 284.149 L
88.5 286.5 L
89.264 288.851 L
91.264 290.304 L
93.736 290.304 L
95.736 288.851 L
cp
S
GR
GS
[0.75 0 0 0.75 0 0.25] CT
1 LJ
N
123.5 165.5 M
122.736 163.149 L
120.736 161.696 L
118.264 161.696 L
116.264 163.149 L
115.5 165.5 L
116.264 167.851 L
118.264 169.304 L
120.736 169.304 L
122.736 167.851 L
cp
S
GR
GS
[0.75 0 0 0.75 0 0.25] CT
1 LJ
N
395.5 419.5 M
394.736 417.149 L
392.736 415.696 L
390.264 415.696 L
388.264 417.149 L
387.5 419.5 L
388.264 421.851 L
390.264 423.304 L
392.736 423.304 L
394.736 421.851 L
cp
S
GR
GS
[0.75 0 0 0.75 0 0.25] CT
1 LJ
N
387.5 418.5 M
386.736 416.149 L
384.736 414.696 L
382.264 414.696 L
380.264 416.149 L
379.5 418.5 L
380.264 420.851 L
382.264 422.304 L
384.736 422.304 L
386.736 420.851 L
cp
S
GR
GS
[0.75 0 0 0.75 0 0.25] CT
1 LJ
N
121.5 196.5 M
120.736 194.149 L
118.736 192.696 L
116.264 192.696 L
114.264 194.149 L
113.5 196.5 L
114.264 198.851 L
116.264 200.304 L
118.736 200.304 L
120.736 198.851 L
cp
S
GR
GS
[0.75 0 0 0.75 0 0.25] CT
1 LJ
N
454.5 327.5 M
453.736 325.149 L
451.736 323.696 L
449.264 323.696 L
447.264 325.149 L
446.5 327.5 L
447.264 329.851 L
449.264 331.304 L
451.736 331.304 L
453.736 329.851 L
cp
S
GR
GS
[0.75 0 0 0.75 0 0.25] CT
1 LJ
N
448.5 356.5 M
447.736 354.149 L
445.736 352.696 L
443.264 352.696 L
441.264 354.149 L
440.5 356.5 L
441.264 358.851 L
443.264 360.304 L
445.736 360.304 L
447.736 358.851 L
cp
S
GR
GS
[0.75 0 0 0.75 0 0.25] CT
1 LJ
N
157.5 391.5 M
156.736 389.149 L
154.736 387.696 L
152.264 387.696 L
150.264 389.149 L
149.5 391.5 L
150.264 393.851 L
152.264 395.304 L
154.736 395.304 L
156.736 393.851 L
cp
S
GR
GS
[0.75 0 0 0.75 0 0.25] CT
1 LJ
N
167.5 109.5 M
166.736 107.149 L
164.736 105.696 L
162.264 105.696 L
160.264 107.149 L
159.5 109.5 L
160.264 111.851 L
162.264 113.304 L
164.736 113.304 L
166.736 111.851 L
cp
S
GR
GS
[0.75 0 0 0.75 0 0.25] CT
1 LJ
N
353.5 449.5 M
352.736 447.149 L
350.736 445.696 L
348.264 445.696 L
346.264 447.149 L
345.5 449.5 L
346.264 451.851 L
348.264 453.304 L
350.736 453.304 L
352.736 451.851 L
cp
S
GR
GS
[0.75 0 0 0.75 0 0.25] CT
1 LJ
N
363.5 435.5 M
362.736 433.149 L
360.736 431.696 L
358.264 431.696 L
356.264 433.149 L
355.5 435.5 L
356.264 437.851 L
358.264 439.304 L
360.736 439.304 L
362.736 437.851 L
cp
S
GR
GS
[0.75 0 0 0.75 0 0.25] CT
1 LJ
N
110.5 313.5 M
109.736 311.149 L
107.736 309.696 L
105.264 309.696 L
103.264 311.149 L
102.5 313.5 L
103.264 315.851 L
105.264 317.304 L
107.736 317.304 L
109.736 315.851 L
cp
S
GR
GS
[0.75 0 0 0.75 0 0.25] CT
1 LJ
N
479.5 228.5 M
478.736 226.149 L
476.736 224.696 L
474.264 224.696 L
472.264 226.149 L
471.5 228.5 L
472.264 230.851 L
474.264 232.304 L
476.736 232.304 L
478.736 230.851 L
cp
S
GR
GS
[0.75 0 0 0.75 0 0.25] CT
1 LJ
N
345.5 262.5 M
344.736 260.149 L
342.736 258.696 L
340.264 258.696 L
338.264 260.149 L
337.5 262.5 L
338.264 264.851 L
340.264 266.304 L
342.736 266.304 L
344.736 264.851 L
cp
S
GR
GS
[0.75 0 0 0.75 0 0.25] CT
1 LJ
N
306.5 309.5 M
305.736 307.149 L
303.736 305.696 L
301.264 305.696 L
299.264 307.149 L
298.5 309.5 L
299.264 311.851 L
301.264 313.304 L
303.736 313.304 L
305.736 311.851 L
cp
S
GR
GS
[0.75 0 0 0.75 0 0.25] CT
1 LJ
N
255.5 291.5 M
254.736 289.149 L
252.736 287.696 L
250.264 287.696 L
248.264 289.149 L
247.5 291.5 L
248.264 293.851 L
250.264 295.304 L
252.736 295.304 L
254.736 293.851 L
cp
S
GR
GS
[0.75 0 0 0.75 0 0.25] CT
1 LJ
N
273.5 297.5 M
272.736 295.149 L
270.736 293.696 L
268.264 293.696 L
266.264 295.149 L
265.5 297.5 L
266.264 299.851 L
268.264 301.304 L
270.736 301.304 L
272.736 299.851 L
cp
S
GR
GS
[0.75 0 0 0.75 0 0.25] CT
1 LJ
N
278.5 313.5 M
277.736 311.149 L
275.736 309.696 L
273.264 309.696 L
271.264 311.149 L
270.5 313.5 L
271.264 315.851 L
273.264 317.304 L
275.736 317.304 L
277.736 315.851 L
cp
S
GR
GS
[0.75 0 0 0.75 0 0.25] CT
1 LJ
N
343.5 247.5 M
342.736 245.149 L
340.736 243.696 L
338.264 243.696 L
336.264 245.149 L
335.5 247.5 L
336.264 249.851 L
338.264 251.304 L
340.736 251.304 L
342.736 249.851 L
cp
S
GR
GS
[0.75 0 0 0.75 0 0.25] CT
1 LJ
N
316.5 274.5 M
315.736 272.149 L
313.736 270.696 L
311.264 270.696 L
309.264 272.149 L
308.5 274.5 L
309.264 276.851 L
311.264 278.304 L
313.736 278.304 L
315.736 276.851 L
cp
S
GR
GS
[0.75 0 0 0.75 0 0.25] CT
1 LJ
N
294.5 271.5 M
293.736 269.149 L
291.736 267.696 L
289.264 267.696 L
287.264 269.149 L
286.5 271.5 L
287.264 273.851 L
289.264 275.304 L
291.736 275.304 L
293.736 273.851 L
cp
S
GR
GS
[0.75 0 0 0.75 0 0.25] CT
1 LJ
N
313.5 275.5 M
312.736 273.149 L
310.736 271.696 L
308.264 271.696 L
306.264 273.149 L
305.5 275.5 L
306.264 277.851 L
308.264 279.304 L
310.736 279.304 L
312.736 277.851 L
cp
S
GR
GS
[0.75 0 0 0.75 0 0.25] CT
1 LJ
N
343.5 269.5 M
342.736 267.149 L
340.736 265.696 L
338.264 265.696 L
336.264 267.149 L
335.5 269.5 L
336.264 271.851 L
338.264 273.304 L
340.736 273.304 L
342.736 271.851 L
cp
S
GR
GS
[0.75 0 0 0.75 0 0.25] CT
1 LJ
N
292.5 272.5 M
291.736 270.149 L
289.736 268.696 L
287.264 268.696 L
285.264 270.149 L
284.5 272.5 L
285.264 274.851 L
287.264 276.304 L
289.736 276.304 L
291.736 274.851 L
cp
S
GR
GS
[0.75 0 0 0.75 0 0.25] CT
1 LJ
N
288.5 268.5 M
287.736 266.149 L
285.736 264.696 L
283.264 264.696 L
281.264 266.149 L
280.5 268.5 L
281.264 270.851 L
283.264 272.304 L
285.736 272.304 L
287.736 270.851 L
cp
S
GR
GS
[0.75 0 0 0.75 0 0.25] CT
1 LJ
N
317.5 257.5 M
316.736 255.149 L
314.736 253.696 L
312.264 253.696 L
310.264 255.149 L
309.5 257.5 L
310.264 259.851 L
312.264 261.304 L
314.736 261.304 L
316.736 259.851 L
cp
S
GR
GS
[0.75 0 0 0.75 0 0.25] CT
1 LJ
N
279.5 264.5 M
278.736 262.149 L
276.736 260.696 L
274.264 260.696 L
272.264 262.149 L
271.5 264.5 L
272.264 266.851 L
274.264 268.304 L
276.736 268.304 L
278.736 266.851 L
cp
S
GR
GS
[0.75 0 0 0.75 0 0.25] CT
1 LJ
N
315.5 247.5 M
314.736 245.149 L
312.736 243.696 L
310.264 243.696 L
308.264 245.149 L
307.5 247.5 L
308.264 249.851 L
310.264 251.304 L
312.736 251.304 L
314.736 249.851 L
cp
S
GR
GS
[0.75 0 0 0.75 0 0.25] CT
1 LJ
N
297.5 257.5 M
296.736 255.149 L
294.736 253.696 L
292.264 253.696 L
290.264 255.149 L
289.5 257.5 L
290.264 259.851 L
292.264 261.304 L
294.736 261.304 L
296.736 259.851 L
cp
S
GR
GS
[0.75 0 0 0.75 0 0.25] CT
1 LJ
N
310.5 304.5 M
309.736 302.149 L
307.736 300.696 L
305.264 300.696 L
303.264 302.149 L
302.5 304.5 L
303.264 306.851 L
305.264 308.304 L
307.736 308.304 L
309.736 306.851 L
cp
S
GR
GS
[0.75 0 0 0.75 0 0.25] CT
1 LJ
N
337.5 237.5 M
336.736 235.149 L
334.736 233.696 L
332.264 233.696 L
330.264 235.149 L
329.5 237.5 L
330.264 239.851 L
332.264 241.304 L
334.736 241.304 L
336.736 239.851 L
cp
S
GR
GS
[0.75 0 0 0.75 0 0.25] CT
1 LJ
N
293.5 243.5 M
292.736 241.149 L
290.736 239.696 L
288.264 239.696 L
286.264 241.149 L
285.5 243.5 L
286.264 245.851 L
288.264 247.304 L
290.736 247.304 L
292.736 245.851 L
cp
S
GR
GS
[0.75 0 0 0.75 0 0.25] CT
1 LJ
N
314.5 283.5 M
313.736 281.149 L
311.736 279.696 L
309.264 279.696 L
307.264 281.149 L
306.5 283.5 L
307.264 285.851 L
309.264 287.304 L
311.736 287.304 L
313.736 285.851 L
cp
S
GR
GS
[0.75 0 0 0.75 0 0.25] CT
1 LJ
N
285.5 307.5 M
284.736 305.149 L
282.736 303.696 L
280.264 303.696 L
278.264 305.149 L
277.5 307.5 L
278.264 309.851 L
280.264 311.304 L
282.736 311.304 L
284.736 309.851 L
cp
S
GR
GS
[0.75 0 0 0.75 0 0.25] CT
1 LJ
N
314.5 198.5 M
313.736 196.149 L
311.736 194.696 L
309.264 194.696 L
307.264 196.149 L
306.5 198.5 L
307.264 200.851 L
309.264 202.304 L
311.736 202.304 L
313.736 200.851 L
cp
S
GR
GS
[0.75 0 0 0.75 0 0.25] CT
1 LJ
N
290.5 307.5 M
289.736 305.149 L
287.736 303.696 L
285.264 303.696 L
283.264 305.149 L
282.5 307.5 L
283.264 309.851 L
285.264 311.304 L
287.736 311.304 L
289.736 309.851 L
cp
S
GR
GS
[0.75 0 0 0.75 0 0.25] CT
1 LJ
N
334.5 228.5 M
333.736 226.149 L
331.736 224.696 L
329.264 224.696 L
327.264 226.149 L
326.5 228.5 L
327.264 230.851 L
329.264 232.304 L
331.736 232.304 L
333.736 230.851 L
cp
S
GR
GS
[0.75 0 0 0.75 0 0.25] CT
1 LJ
N
311.5 304.5 M
310.736 302.149 L
308.736 300.696 L
306.264 300.696 L
304.264 302.149 L
303.5 304.5 L
304.264 306.851 L
306.264 308.304 L
308.736 308.304 L
310.736 306.851 L
cp
S
GR
GS
[0.75 0 0 0.75 0 0.25] CT
1 LJ
N
328.5 232.5 M
327.736 230.149 L
325.736 228.696 L
323.264 228.696 L
321.264 230.149 L
320.5 232.5 L
321.264 234.851 L
323.264 236.304 L
325.736 236.304 L
327.736 234.851 L
cp
S
GR
GS
[0.75 0 0 0.75 0 0.25] CT
1 LJ
N
292.5 253.5 M
291.736 251.149 L
289.736 249.696 L
287.264 249.696 L
285.264 251.149 L
284.5 253.5 L
285.264 255.851 L
287.264 257.304 L
289.736 257.304 L
291.736 255.851 L
cp
S
GR
GS
[0.75 0 0 0.75 0 0.25] CT
1 LJ
N
301.5 272.5 M
300.736 270.149 L
298.736 268.696 L
296.264 268.696 L
294.264 270.149 L
293.5 272.5 L
294.264 274.851 L
296.264 276.304 L
298.736 276.304 L
300.736 274.851 L
cp
S
GR
GS
[0.75 0 0 0.75 0 0.25] CT
1 LJ
N
342.5 279.5 M
341.736 277.149 L
339.736 275.696 L
337.264 275.696 L
335.264 277.149 L
334.5 279.5 L
335.264 281.851 L
337.264 283.304 L
339.736 283.304 L
341.736 281.851 L
cp
S
GR
GS
[0.75 0 0 0.75 0 0.25] CT
1 LJ
N
294.5 316.5 M
293.736 314.149 L
291.736 312.696 L
289.264 312.696 L
287.264 314.149 L
286.5 316.5 L
287.264 318.851 L
289.264 320.304 L
291.736 320.304 L
293.736 318.851 L
cp
S
GR
GS
[0.75 0 0 0.75 0 0.25] CT
1 LJ
N
344.5 227.5 M
343.736 225.149 L
341.736 223.696 L
339.264 223.696 L
337.264 225.149 L
336.5 227.5 L
337.264 229.851 L
339.264 231.304 L
341.736 231.304 L
343.736 229.851 L
cp
S
GR
GS
[0.75 0 0 0.75 0 0.25] CT
1 LJ
N
254.5 292.5 M
253.736 290.149 L
251.736 288.696 L
249.264 288.696 L
247.264 290.149 L
246.5 292.5 L
247.264 294.851 L
249.264 296.304 L
251.736 296.304 L
253.736 294.851 L
cp
S
GR
GS
[0.75 0 0 0.75 0 0.25] CT
1 LJ
N
312.5 246.5 M
311.736 244.149 L
309.736 242.696 L
307.264 242.696 L
305.264 244.149 L
304.5 246.5 L
305.264 248.851 L
307.264 250.304 L
309.736 250.304 L
311.736 248.851 L
cp
S
GR
GS
[0.75 0 0 0.75 0 0.25] CT
1 LJ
N
342.5 265.5 M
341.736 263.149 L
339.736 261.696 L
337.264 261.696 L
335.264 263.149 L
334.5 265.5 L
335.264 267.851 L
337.264 269.304 L
339.736 269.304 L
341.736 267.851 L
cp
S
GR
GS
[0.75 0 0 0.75 0 0.25] CT
1 LJ
N
275.5 285.5 M
274.736 283.149 L
272.736 281.696 L
270.264 281.696 L
268.264 283.149 L
267.5 285.5 L
268.264 287.851 L
270.264 289.304 L
272.736 289.304 L
274.736 287.851 L
cp
S
GR
GS
[0.75 0 0 0.75 0 0.25] CT
1 LJ
N
278.5 290.5 M
277.736 288.149 L
275.736 286.696 L
273.264 286.696 L
271.264 288.149 L
270.5 290.5 L
271.264 292.851 L
273.264 294.304 L
275.736 294.304 L
277.736 292.851 L
cp
S
GR
GS
[0.75 0 0 0.75 0 0.25] CT
1 LJ
N
289.5 274.5 M
288.736 272.149 L
286.736 270.696 L
284.264 270.696 L
282.264 272.149 L
281.5 274.5 L
282.264 276.851 L
284.264 278.304 L
286.736 278.304 L
288.736 276.851 L
cp
S
GR
GS
[0.75 0 0 0.75 0 0.25] CT
1 LJ
N
259.5 303.5 M
258.736 301.149 L
256.736 299.696 L
254.264 299.696 L
252.264 301.149 L
251.5 303.5 L
252.264 305.851 L
254.264 307.304 L
256.736 307.304 L
258.736 305.851 L
cp
S
GR
GS
[0.75 0 0 0.75 0 0.25] CT
1 LJ
N
324.5 236.5 M
323.736 234.149 L
321.736 232.696 L
319.264 232.696 L
317.264 234.149 L
316.5 236.5 L
317.264 238.851 L
319.264 240.304 L
321.736 240.304 L
323.736 238.851 L
cp
S
GR
GS
[0.75 0 0 0.75 0 0.25] CT
1 LJ
N
313.5 281.5 M
312.736 279.149 L
310.736 277.696 L
308.264 277.696 L
306.264 279.149 L
305.5 281.5 L
306.264 283.851 L
308.264 285.304 L
310.736 285.304 L
312.736 283.851 L
cp
S
GR
GS
[0.75 0 0 0.75 0 0.25] CT
1 LJ
N
316.5 223.5 M
315.736 221.149 L
313.736 219.696 L
311.264 219.696 L
309.264 221.149 L
308.5 223.5 L
309.264 225.851 L
311.264 227.304 L
313.736 227.304 L
315.736 225.851 L
cp
S
GR
GS
[0.75 0 0 0.75 0 0.25] CT
1 LJ
N
255.5 299.5 M
254.736 297.149 L
252.736 295.696 L
250.264 295.696 L
248.264 297.149 L
247.5 299.5 L
248.264 301.851 L
250.264 303.304 L
252.736 303.304 L
254.736 301.851 L
cp
S
GR
GS
[0.75 0 0 0.75 0 0.25] CT
1 LJ
N
302.5 247.5 M
301.736 245.149 L
299.736 243.696 L
297.264 243.696 L
295.264 245.149 L
294.5 247.5 L
295.264 249.851 L
297.264 251.304 L
299.736 251.304 L
301.736 249.851 L
cp
S
GR
GS
[0.75 0 0 0.75 0 0.25] CT
1 LJ
N
326.5 266.5 M
325.736 264.149 L
323.736 262.696 L
321.264 262.696 L
319.264 264.149 L
318.5 266.5 L
319.264 268.851 L
321.264 270.304 L
323.736 270.304 L
325.736 268.851 L
cp
S
GR
GS
[0.75 0 0 0.75 0 0.25] CT
1 GC
N
372 104 M
372 52 L
482 52 L
482 104 L
cp
f
GR
GS
[0.75 0 0 0.75 318 46.92419] CT
/Helvetica 12 F
GS
[1 0 0 1 0 0] CT
0 4.5 moveto 
1 -1 scale
(1) t 
GR
GR
GS
[0.75 0 0 0.75 0 0.25] CT
0 0 1 RC
1 LJ
N
396 66 M
403 59 L
S
GR
GS
[0.75 0 0 0.75 0 0.25] CT
0 0 1 RC
1 LJ
N
396 59 M
403 66 L
S
GR
GS
[0.75 0 0 0.75 318 58.75] CT
/Helvetica 12 F
GS
[1 0 0 1 0 0] CT
0 4.5 moveto 
1 -1 scale
(2) t 
GR
GR
GS
[0.75 0 0 0.75 300 58.75] CT
1 0 0 RC
N
3.333 0 M
3.333 1.841 1.841 3.333 0 3.333 C
-1.841 3.333 -3.333 1.841 -3.333 0 C
-3.333 -1.841 -1.841 -3.333 0 -3.333 C
1.841 -3.333 3.333 -1.841 3.333 0 C
cp
f
GR
GS
[0.75 0 0 0.75 318 70.5758] CT
/Helvetica 12 F
GS
[1 0 0 1 0 0] CT
0 4.5 moveto 
1 -1 scale
(Changed) t 
GR
GR
GS
[0.75 0 0 0.75 0 0.25] CT
1 LJ
N
403.5 93.5 M
402.736 91.149 L
400.736 89.696 L
398.264 89.696 L
396.264 91.149 L
395.5 93.5 L
396.264 95.851 L
398.264 97.304 L
400.736 97.304 L
402.736 95.851 L
cp
S
GR
GS
[0.75 0 0 0.75 0 0.25] CT
0.149 GC
10.0 ML
0.667 LW
N
372 104 M
372 52 L
482 52 L
482 104 L
cp
S
GR
%%Trailer
%%Pages: 1
%%EOF
